13000000
971100c0
93810180
37110000
ef008001
13000000
6f000000
13000000
13000000
13000000
130101fa
1306a000
93058102
13050100
232c8104
232a9104
232e1104
13048102
ef00c003
93040105
03250400
13044400
13050503
ef000008
1305a000
ef008007
e31494fe
8320c105
03248105
83244105
13050000
13010106
67800000
635ec002
23200500
23a00500
13054500
93070000
6f008001
2320f500
03a7c5ff
13054500
3307f700
23a0e500
93871700
93854500
e312f6fe
67800000
67800000
834780ff
93f72700
e38c07fe
0345c0ff
1375f50f
67800000
834780ff
93f71700
e38c07fe
9377f50f
230ef0fe
67800000
b787ffff
03a50700
67800000
130101fd
232e3101
232a5101
93094100
930aa000
23229102
23202103
23286101
23261102
23248102
232c4101
93040500
a3070100
13890900
b38a3a41
130b9000
9305a000
13850400
ef00c01c
13040503
1374f40f
13850400
23058900
9305a000
ef00c016
138a0400
33872a01
93040500
1309f9ff
e3664bfd
3387e900
13071700
834780ff
93f71700
e38c07fe
230e80fe
03440700
e31404fe
834780ff
93f71700
e38c07fe
9307a000
230ef0fe
8320c102
03248102
83244102
03290102
8329c101
032a8101
832a4101
032b0101
13010103
67800000
03470500
63000702
13051500
834780ff
93f71700
e38c07fe
230ee0fe
03470500
e31407fe
13050000
67800000
03470500
63000702
13051500
834780ff
93f71700
e38c07fe
230ee0fe
03470500
e31407fe
834780ff
93f71700
e38c07fe
9307a000
230ef0fe
13050000
67800000
93070500
63000602
3305c500
03c70500
93871700
93851500
a38fe7fe
e318f5fe
67800000
67800000
83470500
13070500
13050000
638c0700
13051500
b307a700
83c70700
e39a07fe
67800000
67800000
93060500
6f00c000
3305f740
6312f702
03c70600
83c70500
93861600
93851500
3366f700
e31206fe
13050000
67800000
67800000
63400506
63c60506
13860500
93050500
1305f0ff
630c0602
93061000
637ab600
6358c000
13161600
93961600
e36ab6fe
13050000
63e6c500
b385c540
3365d500
93d61600
13561600
e39606fe
67800000
93820000
eff05ffb
13850500
67800200
3305a040
6348b000
b305b040
6ff0dff9
b305b040
93820000
eff01ff9
3305a040
67800200
93820000
63ca0500
634c0500
eff09ff7
13850500
67800200
b305b040
e35805fe
3305a040
eff01ff6
3305b040
67800200
