
md5.elf:     file format elf32-littleriscv


Disassembly of section .text:

40000000 <_start>:
40000000:	00000013          	addi	zero,zero,0
40000004:	c0001197          	auipc	gp,0xc0001
40000008:	a9018193          	addi	gp,gp,-1392 # a94 <__global_pointer$>
4000000c:	00001137          	lui	sp,0x1
40000010:	018000ef          	jal	ra,40000028 <main>
40000014:	00000013          	addi	zero,zero,0

40000018 <loop>:
40000018:	0000006f          	jal	zero,40000018 <loop>
4000001c:	00000013          	addi	zero,zero,0
40000020:	00000013          	addi	zero,zero,0
40000024:	00000013          	addi	zero,zero,0

40000028 <main>:
40000028:	f4010113          	addi	sp,sp,-192 # f40 <__global_pointer$+0x4ac>
4000002c:	0a812c23          	sw	s0,184(sp)
40000030:	0b212823          	sw	s2,176(sp)
40000034:	0b612023          	sw	s6,160(sp)
40000038:	25c00413          	addi	s0,zero,604
4000003c:	0b312623          	sw	s3,172(sp)
40000040:	0b412423          	sw	s4,168(sp)
40000044:	0b512223          	sw	s5,164(sp)
40000048:	09712e23          	sw	s7,156(sp)
4000004c:	0a112e23          	sw	ra,188(sp)
40000050:	0a912a23          	sw	s1,180(sp)
40000054:	03840993          	addi	s3,s0,56
40000058:	04400913          	addi	s2,zero,68
4000005c:	00000a13          	addi	s4,zero,0
40000060:	03410b93          	addi	s7,sp,52
40000064:	06800b13          	addi	s6,zero,104
40000068:	03810513          	addi	a0,sp,56
4000006c:	5c5000ef          	jal	ra,40000e30 <md5_init>
40000070:	00042483          	lw	s1,0(s0)
40000074:	00048513          	addi	a0,s1,0
40000078:	1ec010ef          	jal	ra,40001264 <strlen>
4000007c:	00050613          	addi	a2,a0,0
40000080:	00048593          	addi	a1,s1,0
40000084:	03810513          	addi	a0,sp,56
40000088:	5e5000ef          	jal	ra,40000e6c <md5_append>
4000008c:	00410593          	addi	a1,sp,4
40000090:	03810513          	addi	a0,sp,56
40000094:	769000ef          	jal	ra,40000ffc <md5_finish>
40000098:	00410613          	addi	a2,sp,4
4000009c:	01410713          	addi	a4,sp,20
400000a0:	00064783          	lbu	a5,0(a2)
400000a4:	00070123          	sb	zero,2(a4)
400000a8:	00270713          	addi	a4,a4,2
400000ac:	0047d693          	srli	a3,a5,0x4
400000b0:	00f7f793          	andi	a5,a5,15
400000b4:	00db06b3          	add	a3,s6,a3
400000b8:	00fb07b3          	add	a5,s6,a5
400000bc:	0006c683          	lbu	a3,0(a3)
400000c0:	0007c783          	lbu	a5,0(a5)
400000c4:	00160613          	addi	a2,a2,1
400000c8:	fed70f23          	sb	a3,-2(a4)
400000cc:	fef70fa3          	sb	a5,-1(a4)
400000d0:	fceb98e3          	bne	s7,a4,400000a0 <main+0x78>
400000d4:	00090593          	addi	a1,s2,0
400000d8:	01410513          	addi	a0,sp,20
400000dc:	1b0010ef          	jal	ra,4000128c <strcmp>
400000e0:	00051a63          	bne	a0,zero,400000f4 <main+0xcc>
400000e4:	00840413          	addi	s0,s0,8
400000e8:	03340c63          	beq	s0,s3,40000120 <main+0xf8>
400000ec:	00442903          	lw	s2,4(s0)
400000f0:	f79ff06f          	jal	zero,40000068 <main+0x40>
400000f4:	00048513          	addi	a0,s1,0
400000f8:	104010ef          	jal	ra,400011fc <puts>
400000fc:	01410513          	addi	a0,sp,20
40000100:	0fc010ef          	jal	ra,400011fc <puts>
40000104:	07c00513          	addi	a0,zero,124
40000108:	0f4010ef          	jal	ra,400011fc <puts>
4000010c:	00090513          	addi	a0,s2,0
40000110:	00840413          	addi	s0,s0,8
40000114:	0e8010ef          	jal	ra,400011fc <puts>
40000118:	00100a13          	addi	s4,zero,1
4000011c:	fd3418e3          	bne	s0,s3,400000ec <main+0xc4>
40000120:	020a0a63          	beq	s4,zero,40000154 <main+0x12c>
40000124:	0bc12083          	lw	ra,188(sp)
40000128:	0b812403          	lw	s0,184(sp)
4000012c:	0b412483          	lw	s1,180(sp)
40000130:	0b012903          	lw	s2,176(sp)
40000134:	0ac12983          	lw	s3,172(sp)
40000138:	0a812a03          	lw	s4,168(sp)
4000013c:	0a412a83          	lw	s5,164(sp)
40000140:	0a012b03          	lw	s6,160(sp)
40000144:	09c12b83          	lw	s7,156(sp)
40000148:	00000513          	addi	a0,zero,0
4000014c:	0c010113          	addi	sp,sp,192
40000150:	00008067          	jalr	zero,0(ra)
40000154:	09400513          	addi	a0,zero,148
40000158:	0a4010ef          	jal	ra,400011fc <puts>
4000015c:	fc9ff06f          	jal	zero,40000124 <main+0xfc>

40000160 <md5_process>:
40000160:	00852683          	lw	a3,8(a0)
40000164:	f7010113          	addi	sp,sp,-144
40000168:	08812423          	sw	s0,136(sp)
4000016c:	08912223          	sw	s1,132(sp)
40000170:	07712623          	sw	s7,108(sp)
40000174:	07812423          	sw	s8,104(sp)
40000178:	08112623          	sw	ra,140(sp)
4000017c:	09212023          	sw	s2,128(sp)
40000180:	07312e23          	sw	s3,124(sp)
40000184:	07412c23          	sw	s4,120(sp)
40000188:	07512a23          	sw	s5,116(sp)
4000018c:	07612823          	sw	s6,112(sp)
40000190:	07912223          	sw	s9,100(sp)
40000194:	07a12023          	sw	s10,96(sp)
40000198:	05b12e23          	sw	s11,92(sp)
4000019c:	0035f793          	andi	a5,a1,3
400001a0:	00d12623          	sw	a3,12(sp)
400001a4:	00c52483          	lw	s1,12(a0)
400001a8:	01052b83          	lw	s7,16(a0)
400001ac:	01452c03          	lw	s8,20(a0)
400001b0:	00050413          	addi	s0,a0,0
400001b4:	00058713          	addi	a4,a1,0
400001b8:	460792e3          	bne	a5,zero,40000e1c <md5_process+0xcbc>
400001bc:	00c12603          	lw	a2,12(sp)
400001c0:	018bc7b3          	xor	a5,s7,s8
400001c4:	d76aa6b7          	lui	a3,0xd76aa
400001c8:	00072c83          	lw	s9,0(a4)
400001cc:	0097f7b3          	and	a5,a5,s1
400001d0:	47868693          	addi	a3,a3,1144 # d76aa478 <__modsi3+0x976a9134>
400001d4:	00d606b3          	add	a3,a2,a3
400001d8:	0187c7b3          	xor	a5,a5,s8
400001dc:	00d787b3          	add	a5,a5,a3
400001e0:	019787b3          	add	a5,a5,s9
400001e4:	00779693          	slli	a3,a5,0x7
400001e8:	0197d793          	srli	a5,a5,0x19
400001ec:	00472283          	lw	t0,4(a4)
400001f0:	00d7e7b3          	or	a5,a5,a3
400001f4:	e8c7b6b7          	lui	a3,0xe8c7b
400001f8:	009787b3          	add	a5,a5,s1
400001fc:	0174c533          	xor	a0,s1,s7
40000200:	75668693          	addi	a3,a3,1878 # e8c7b756 <__modsi3+0xa8c7a412>
40000204:	00f57533          	and	a0,a0,a5
40000208:	00dc06b3          	add	a3,s8,a3
4000020c:	005686b3          	add	a3,a3,t0
40000210:	01754533          	xor	a0,a0,s7
40000214:	00d50533          	add	a0,a0,a3
40000218:	00c51693          	slli	a3,a0,0xc
4000021c:	01455513          	srli	a0,a0,0x14
40000220:	00872803          	lw	a6,8(a4)
40000224:	00d56533          	or	a0,a0,a3
40000228:	242076b7          	lui	a3,0x24207
4000022c:	00f50533          	add	a0,a0,a5
40000230:	00f4c5b3          	xor	a1,s1,a5
40000234:	0db68693          	addi	a3,a3,219 # 242070db <__global_pointer$+0x24206647>
40000238:	00a5f5b3          	and	a1,a1,a0
4000023c:	00db86b3          	add	a3,s7,a3
40000240:	010686b3          	add	a3,a3,a6
40000244:	0095c5b3          	xor	a1,a1,s1
40000248:	00d585b3          	add	a1,a1,a3
4000024c:	00f5d693          	srli	a3,a1,0xf
40000250:	01159593          	slli	a1,a1,0x11
40000254:	00c72903          	lw	s2,12(a4)
40000258:	00d5e5b3          	or	a1,a1,a3
4000025c:	c1bdd637          	lui	a2,0xc1bdd
40000260:	00a585b3          	add	a1,a1,a0
40000264:	00a7c6b3          	xor	a3,a5,a0
40000268:	eee60613          	addi	a2,a2,-274 # c1bdceee <__modsi3+0x81bdbbaa>
4000026c:	00b6f6b3          	and	a3,a3,a1
40000270:	00c48633          	add	a2,s1,a2
40000274:	01260633          	add	a2,a2,s2
40000278:	00f6c6b3          	xor	a3,a3,a5
4000027c:	00c686b3          	add	a3,a3,a2
40000280:	01072303          	lw	t1,16(a4)
40000284:	00a6d613          	srli	a2,a3,0xa
40000288:	01669693          	slli	a3,a3,0x16
4000028c:	00c6e6b3          	or	a3,a3,a2
40000290:	f57c18b7          	lui	a7,0xf57c1
40000294:	00b686b3          	add	a3,a3,a1
40000298:	00b54633          	xor	a2,a0,a1
4000029c:	faf88893          	addi	a7,a7,-81 # f57c0faf <__modsi3+0xb57bfc6b>
400002a0:	011308b3          	add	a7,t1,a7
400002a4:	00d67633          	and	a2,a2,a3
400002a8:	00a64633          	xor	a2,a2,a0
400002ac:	00f887b3          	add	a5,a7,a5
400002b0:	00f607b3          	add	a5,a2,a5
400002b4:	01472a03          	lw	s4,20(a4)
400002b8:	00779613          	slli	a2,a5,0x7
400002bc:	0197d793          	srli	a5,a5,0x19
400002c0:	00c7e7b3          	or	a5,a5,a2
400002c4:	4787c637          	lui	a2,0x4787c
400002c8:	00d787b3          	add	a5,a5,a3
400002cc:	00d5c8b3          	xor	a7,a1,a3
400002d0:	62a60613          	addi	a2,a2,1578 # 4787c62a <__modsi3+0x787b2e6>
400002d4:	00ca0633          	add	a2,s4,a2
400002d8:	00f8f8b3          	and	a7,a7,a5
400002dc:	00a60533          	add	a0,a2,a0
400002e0:	00b8c8b3          	xor	a7,a7,a1
400002e4:	00a888b3          	add	a7,a7,a0
400002e8:	01872e83          	lw	t4,24(a4)
400002ec:	00c89613          	slli	a2,a7,0xc
400002f0:	0148d893          	srli	a7,a7,0x14
400002f4:	00c8e8b3          	or	a7,a7,a2
400002f8:	a8304537          	lui	a0,0xa8304
400002fc:	00f888b3          	add	a7,a7,a5
40000300:	00f6c633          	xor	a2,a3,a5
40000304:	61350513          	addi	a0,a0,1555 # a8304613 <__modsi3+0x683032cf>
40000308:	00ae8533          	add	a0,t4,a0
4000030c:	01167633          	and	a2,a2,a7
40000310:	00b505b3          	add	a1,a0,a1
40000314:	00d64633          	xor	a2,a2,a3
40000318:	00b60633          	add	a2,a2,a1
4000031c:	01c72b03          	lw	s6,28(a4)
40000320:	00f65593          	srli	a1,a2,0xf
40000324:	01161613          	slli	a2,a2,0x11
40000328:	00b66633          	or	a2,a2,a1
4000032c:	fd4695b7          	lui	a1,0xfd469
40000330:	01160633          	add	a2,a2,a7
40000334:	0117c9b3          	xor	s3,a5,a7
40000338:	50158593          	addi	a1,a1,1281 # fd469501 <__modsi3+0xbd4681bd>
4000033c:	00bb05b3          	add	a1,s6,a1
40000340:	00c9f9b3          	and	s3,s3,a2
40000344:	00d586b3          	add	a3,a1,a3
40000348:	00f9c9b3          	xor	s3,s3,a5
4000034c:	00d989b3          	add	s3,s3,a3
40000350:	02072f83          	lw	t6,32(a4)
40000354:	00a9d693          	srli	a3,s3,0xa
40000358:	01699993          	slli	s3,s3,0x16
4000035c:	00d9e9b3          	or	s3,s3,a3
40000360:	6980a6b7          	lui	a3,0x6980a
40000364:	00c989b3          	add	s3,s3,a2
40000368:	00c8ce33          	xor	t3,a7,a2
4000036c:	8d868693          	addi	a3,a3,-1832 # 698098d8 <__modsi3+0x29808594>
40000370:	00df86b3          	add	a3,t6,a3
40000374:	013e7e33          	and	t3,t3,s3
40000378:	00f687b3          	add	a5,a3,a5
4000037c:	011e4e33          	xor	t3,t3,a7
40000380:	00fe0e33          	add	t3,t3,a5
40000384:	02472503          	lw	a0,36(a4)
40000388:	007e1793          	slli	a5,t3,0x7
4000038c:	019e5e13          	srli	t3,t3,0x19
40000390:	00fe6e33          	or	t3,t3,a5
40000394:	8b44f7b7          	lui	a5,0x8b44f
40000398:	013e0e33          	add	t3,t3,s3
4000039c:	01364ab3          	xor	s5,a2,s3
400003a0:	7af78793          	addi	a5,a5,1967 # 8b44f7af <__modsi3+0x4b44e46b>
400003a4:	00f507b3          	add	a5,a0,a5
400003a8:	01cafab3          	and	s5,s5,t3
400003ac:	011788b3          	add	a7,a5,a7
400003b0:	00cacab3          	xor	s5,s5,a2
400003b4:	011a8ab3          	add	s5,s5,a7
400003b8:	02872383          	lw	t2,40(a4)
400003bc:	00ca9793          	slli	a5,s5,0xc
400003c0:	014ada93          	srli	s5,s5,0x14
400003c4:	00faeab3          	or	s5,s5,a5
400003c8:	ffff67b7          	lui	a5,0xffff6
400003cc:	01ca8ab3          	add	s5,s5,t3
400003d0:	01c9cf33          	xor	t5,s3,t3
400003d4:	bb178793          	addi	a5,a5,-1103 # ffff5bb1 <__modsi3+0xbfff486d>
400003d8:	00f387b3          	add	a5,t2,a5
400003dc:	015f7f33          	and	t5,t5,s5
400003e0:	00c78633          	add	a2,a5,a2
400003e4:	013f4f33          	xor	t5,t5,s3
400003e8:	00cf0f33          	add	t5,t5,a2
400003ec:	02c72883          	lw	a7,44(a4)
400003f0:	00ff5793          	srli	a5,t5,0xf
400003f4:	011f1f13          	slli	t5,t5,0x11
400003f8:	00ff6f33          	or	t5,t5,a5
400003fc:	895cd7b7          	lui	a5,0x895cd
40000400:	015f0f33          	add	t5,t5,s5
40000404:	015e45b3          	xor	a1,t3,s5
40000408:	7be78793          	addi	a5,a5,1982 # 895cd7be <__modsi3+0x495cc47a>
4000040c:	00f887b3          	add	a5,a7,a5
40000410:	01e5f5b3          	and	a1,a1,t5
40000414:	013789b3          	add	s3,a5,s3
40000418:	01c5c5b3          	xor	a1,a1,t3
4000041c:	013585b3          	add	a1,a1,s3
40000420:	00a5d793          	srli	a5,a1,0xa
40000424:	03072983          	lw	s3,48(a4)
40000428:	01659593          	slli	a1,a1,0x16
4000042c:	00f5e5b3          	or	a1,a1,a5
40000430:	6b9017b7          	lui	a5,0x6b901
40000434:	01e585b3          	add	a1,a1,t5
40000438:	01eac6b3          	xor	a3,s5,t5
4000043c:	12278793          	addi	a5,a5,290 # 6b901122 <__modsi3+0x2b8ffdde>
40000440:	00f987b3          	add	a5,s3,a5
40000444:	00b6f6b3          	and	a3,a3,a1
40000448:	01c78e33          	add	t3,a5,t3
4000044c:	0156c6b3          	xor	a3,a3,s5
40000450:	01c686b3          	add	a3,a3,t3
40000454:	00769793          	slli	a5,a3,0x7
40000458:	03472e03          	lw	t3,52(a4)
4000045c:	0196d693          	srli	a3,a3,0x19
40000460:	00f6e6b3          	or	a3,a3,a5
40000464:	fd987637          	lui	a2,0xfd987
40000468:	00b686b3          	add	a3,a3,a1
4000046c:	00bf47b3          	xor	a5,t5,a1
40000470:	19360613          	addi	a2,a2,403 # fd987193 <__modsi3+0xbd985e4f>
40000474:	00ce0633          	add	a2,t3,a2
40000478:	00d7f7b3          	and	a5,a5,a3
4000047c:	01560ab3          	add	s5,a2,s5
40000480:	01e7c7b3          	xor	a5,a5,t5
40000484:	015787b3          	add	a5,a5,s5
40000488:	00c79613          	slli	a2,a5,0xc
4000048c:	03872a83          	lw	s5,56(a4)
40000490:	0147d793          	srli	a5,a5,0x14
40000494:	00c7e7b3          	or	a5,a5,a2
40000498:	a6794d37          	lui	s10,0xa6794
4000049c:	00d787b3          	add	a5,a5,a3
400004a0:	00d5c633          	xor	a2,a1,a3
400004a4:	38ed0d13          	addi	s10,s10,910 # a679438e <__modsi3+0x6679304a>
400004a8:	01aa8d33          	add	s10,s5,s10
400004ac:	00f67633          	and	a2,a2,a5
400004b0:	01ed0f33          	add	t5,s10,t5
400004b4:	00b64633          	xor	a2,a2,a1
400004b8:	01e60633          	add	a2,a2,t5
400004bc:	03c72f03          	lw	t5,60(a4)
400004c0:	00f65713          	srli	a4,a2,0xf
400004c4:	01161613          	slli	a2,a2,0x11
400004c8:	00e66633          	or	a2,a2,a4
400004cc:	49b41d37          	lui	s10,0x49b41
400004d0:	00f60633          	add	a2,a2,a5
400004d4:	00f6c733          	xor	a4,a3,a5
400004d8:	821d0d13          	addi	s10,s10,-2015 # 49b40821 <__modsi3+0x9b3f4dd>
400004dc:	01af0d33          	add	s10,t5,s10
400004e0:	00c77733          	and	a4,a4,a2
400004e4:	00bd05b3          	add	a1,s10,a1
400004e8:	00d74733          	xor	a4,a4,a3
400004ec:	00b70733          	add	a4,a4,a1
400004f0:	00a75593          	srli	a1,a4,0xa
400004f4:	01671713          	slli	a4,a4,0x16
400004f8:	00b76733          	or	a4,a4,a1
400004fc:	00c70733          	add	a4,a4,a2
40000500:	f61e25b7          	lui	a1,0xf61e2
40000504:	00e64db3          	xor	s11,a2,a4
40000508:	56258593          	addi	a1,a1,1378 # f61e2562 <__modsi3+0xb61e121e>
4000050c:	00b285b3          	add	a1,t0,a1
40000510:	00fdfdb3          	and	s11,s11,a5
40000514:	00d586b3          	add	a3,a1,a3
40000518:	00cdcdb3          	xor	s11,s11,a2
4000051c:	00dd8db3          	add	s11,s11,a3
40000520:	005d9693          	slli	a3,s11,0x5
40000524:	01bddd93          	srli	s11,s11,0x1b
40000528:	00ddedb3          	or	s11,s11,a3
4000052c:	00ed8db3          	add	s11,s11,a4
40000530:	c040b6b7          	lui	a3,0xc040b
40000534:	01b74d33          	xor	s10,a4,s11
40000538:	34068693          	addi	a3,a3,832 # c040b340 <__modsi3+0x80409ffc>
4000053c:	00de86b3          	add	a3,t4,a3
40000540:	00cd7d33          	and	s10,s10,a2
40000544:	00f687b3          	add	a5,a3,a5
40000548:	00ed4d33          	xor	s10,s10,a4
4000054c:	00fd0d33          	add	s10,s10,a5
40000550:	009d1793          	slli	a5,s10,0x9
40000554:	017d5d13          	srli	s10,s10,0x17
40000558:	00fd6d33          	or	s10,s10,a5
4000055c:	01bd0d33          	add	s10,s10,s11
40000560:	265e66b7          	lui	a3,0x265e6
40000564:	01adc7b3          	xor	a5,s11,s10
40000568:	a5168693          	addi	a3,a3,-1455 # 265e5a51 <__global_pointer$+0x265e4fbd>
4000056c:	00d886b3          	add	a3,a7,a3
40000570:	00e7f7b3          	and	a5,a5,a4
40000574:	00c68633          	add	a2,a3,a2
40000578:	01b7c7b3          	xor	a5,a5,s11
4000057c:	00c787b3          	add	a5,a5,a2
40000580:	00e79693          	slli	a3,a5,0xe
40000584:	0127d793          	srli	a5,a5,0x12
40000588:	00d7e7b3          	or	a5,a5,a3
4000058c:	01a787b3          	add	a5,a5,s10
40000590:	e9b6c6b7          	lui	a3,0xe9b6c
40000594:	00fd45b3          	xor	a1,s10,a5
40000598:	7aa68693          	addi	a3,a3,1962 # e9b6c7aa <__modsi3+0xa9b6b466>
4000059c:	00dc86b3          	add	a3,s9,a3
400005a0:	01b5f5b3          	and	a1,a1,s11
400005a4:	00e68733          	add	a4,a3,a4
400005a8:	01a5c5b3          	xor	a1,a1,s10
400005ac:	00e585b3          	add	a1,a1,a4
400005b0:	00c5d713          	srli	a4,a1,0xc
400005b4:	01459593          	slli	a1,a1,0x14
400005b8:	00e5e5b3          	or	a1,a1,a4
400005bc:	00f585b3          	add	a1,a1,a5
400005c0:	d62f16b7          	lui	a3,0xd62f1
400005c4:	00b7c733          	xor	a4,a5,a1
400005c8:	05d68693          	addi	a3,a3,93 # d62f105d <__modsi3+0x962efd19>
400005cc:	00da06b3          	add	a3,s4,a3
400005d0:	01a77733          	and	a4,a4,s10
400005d4:	01b68db3          	add	s11,a3,s11
400005d8:	00f74733          	xor	a4,a4,a5
400005dc:	01b70733          	add	a4,a4,s11
400005e0:	00571693          	slli	a3,a4,0x5
400005e4:	01b75713          	srli	a4,a4,0x1b
400005e8:	00d76733          	or	a4,a4,a3
400005ec:	00b70733          	add	a4,a4,a1
400005f0:	02441637          	lui	a2,0x2441
400005f4:	00e5c6b3          	xor	a3,a1,a4
400005f8:	45360613          	addi	a2,a2,1107 # 2441453 <__global_pointer$+0x24409bf>
400005fc:	00c38633          	add	a2,t2,a2
40000600:	00f6f6b3          	and	a3,a3,a5
40000604:	01a60d33          	add	s10,a2,s10
40000608:	00b6c6b3          	xor	a3,a3,a1
4000060c:	01a686b3          	add	a3,a3,s10
40000610:	00969613          	slli	a2,a3,0x9
40000614:	0176d693          	srli	a3,a3,0x17
40000618:	00c6e6b3          	or	a3,a3,a2
4000061c:	00e686b3          	add	a3,a3,a4
40000620:	d8a1ed37          	lui	s10,0xd8a1e
40000624:	00d74633          	xor	a2,a4,a3
40000628:	681d0d13          	addi	s10,s10,1665 # d8a1e681 <__modsi3+0x98a1d33d>
4000062c:	01af0d33          	add	s10,t5,s10
40000630:	00b67633          	and	a2,a2,a1
40000634:	00fd07b3          	add	a5,s10,a5
40000638:	00e64633          	xor	a2,a2,a4
4000063c:	00f60633          	add	a2,a2,a5
40000640:	00e61793          	slli	a5,a2,0xe
40000644:	01265613          	srli	a2,a2,0x12
40000648:	00f66633          	or	a2,a2,a5
4000064c:	00d60633          	add	a2,a2,a3
40000650:	e7d40d37          	lui	s10,0xe7d40
40000654:	00c6c7b3          	xor	a5,a3,a2
40000658:	bc8d0d13          	addi	s10,s10,-1080 # e7d3fbc8 <__modsi3+0xa7d3e884>
4000065c:	01a30d33          	add	s10,t1,s10
40000660:	00e7f7b3          	and	a5,a5,a4
40000664:	00bd05b3          	add	a1,s10,a1
40000668:	00d7c7b3          	xor	a5,a5,a3
4000066c:	00b787b3          	add	a5,a5,a1
40000670:	00c7d593          	srli	a1,a5,0xc
40000674:	01479793          	slli	a5,a5,0x14
40000678:	00b7e7b3          	or	a5,a5,a1
4000067c:	00c787b3          	add	a5,a5,a2
40000680:	21e1d5b7          	lui	a1,0x21e1d
40000684:	00f64db3          	xor	s11,a2,a5
40000688:	de658593          	addi	a1,a1,-538 # 21e1cde6 <__global_pointer$+0x21e1c352>
4000068c:	00b505b3          	add	a1,a0,a1
40000690:	00ddfdb3          	and	s11,s11,a3
40000694:	00e58733          	add	a4,a1,a4
40000698:	00cdcdb3          	xor	s11,s11,a2
4000069c:	00ed8db3          	add	s11,s11,a4
400006a0:	005d9713          	slli	a4,s11,0x5
400006a4:	01bddd93          	srli	s11,s11,0x1b
400006a8:	00ededb3          	or	s11,s11,a4
400006ac:	00fd8db3          	add	s11,s11,a5
400006b0:	c3370737          	lui	a4,0xc3370
400006b4:	01b7cd33          	xor	s10,a5,s11
400006b8:	7d670713          	addi	a4,a4,2006 # c33707d6 <__modsi3+0x8336f492>
400006bc:	00ea8733          	add	a4,s5,a4
400006c0:	00cd7d33          	and	s10,s10,a2
400006c4:	00d706b3          	add	a3,a4,a3
400006c8:	00fd4d33          	xor	s10,s10,a5
400006cc:	00dd0d33          	add	s10,s10,a3
400006d0:	009d1713          	slli	a4,s10,0x9
400006d4:	017d5d13          	srli	s10,s10,0x17
400006d8:	00ed6d33          	or	s10,s10,a4
400006dc:	01bd0d33          	add	s10,s10,s11
400006e0:	f4d51737          	lui	a4,0xf4d51
400006e4:	01adc5b3          	xor	a1,s11,s10
400006e8:	d8770713          	addi	a4,a4,-633 # f4d50d87 <__modsi3+0xb4d4fa43>
400006ec:	00e90733          	add	a4,s2,a4
400006f0:	00f5f5b3          	and	a1,a1,a5
400006f4:	00c70633          	add	a2,a4,a2
400006f8:	01b5c5b3          	xor	a1,a1,s11
400006fc:	00c585b3          	add	a1,a1,a2
40000700:	00e59713          	slli	a4,a1,0xe
40000704:	0125d593          	srli	a1,a1,0x12
40000708:	00e5e5b3          	or	a1,a1,a4
4000070c:	01a585b3          	add	a1,a1,s10
40000710:	455a16b7          	lui	a3,0x455a1
40000714:	00bd4733          	xor	a4,s10,a1
40000718:	4ed68693          	addi	a3,a3,1261 # 455a14ed <__modsi3+0x55a01a9>
4000071c:	00df86b3          	add	a3,t6,a3
40000720:	01b77733          	and	a4,a4,s11
40000724:	00f687b3          	add	a5,a3,a5
40000728:	01a74733          	xor	a4,a4,s10
4000072c:	00f70733          	add	a4,a4,a5
40000730:	00c75793          	srli	a5,a4,0xc
40000734:	01471713          	slli	a4,a4,0x14
40000738:	00f76733          	or	a4,a4,a5
4000073c:	00b70733          	add	a4,a4,a1
40000740:	a9e3f6b7          	lui	a3,0xa9e3f
40000744:	00e5c7b3          	xor	a5,a1,a4
40000748:	90568693          	addi	a3,a3,-1787 # a9e3e905 <__modsi3+0x69e3d5c1>
4000074c:	00de06b3          	add	a3,t3,a3
40000750:	01a7f7b3          	and	a5,a5,s10
40000754:	01b68db3          	add	s11,a3,s11
40000758:	00b7c7b3          	xor	a5,a5,a1
4000075c:	01b787b3          	add	a5,a5,s11
40000760:	00579693          	slli	a3,a5,0x5
40000764:	01b7d793          	srli	a5,a5,0x1b
40000768:	00d7e7b3          	or	a5,a5,a3
4000076c:	00e787b3          	add	a5,a5,a4
40000770:	fcefa637          	lui	a2,0xfcefa
40000774:	00f746b3          	xor	a3,a4,a5
40000778:	3f860613          	addi	a2,a2,1016 # fcefa3f8 <__modsi3+0xbcef90b4>
4000077c:	00c80633          	add	a2,a6,a2
40000780:	00b6f6b3          	and	a3,a3,a1
40000784:	01a60d33          	add	s10,a2,s10
40000788:	00e6c6b3          	xor	a3,a3,a4
4000078c:	01a686b3          	add	a3,a3,s10
40000790:	00969613          	slli	a2,a3,0x9
40000794:	0176d693          	srli	a3,a3,0x17
40000798:	00c6e6b3          	or	a3,a3,a2
4000079c:	00f686b3          	add	a3,a3,a5
400007a0:	676f0d37          	lui	s10,0x676f0
400007a4:	00d7c633          	xor	a2,a5,a3
400007a8:	2d9d0d13          	addi	s10,s10,729 # 676f02d9 <__modsi3+0x276eef95>
400007ac:	01ab0d33          	add	s10,s6,s10
400007b0:	00e67633          	and	a2,a2,a4
400007b4:	00bd05b3          	add	a1,s10,a1
400007b8:	00f64633          	xor	a2,a2,a5
400007bc:	00b60633          	add	a2,a2,a1
400007c0:	00e61593          	slli	a1,a2,0xe
400007c4:	01265613          	srli	a2,a2,0x12
400007c8:	00b66633          	or	a2,a2,a1
400007cc:	00d60633          	add	a2,a2,a3
400007d0:	8d2a5d37          	lui	s10,0x8d2a5
400007d4:	00c6cdb3          	xor	s11,a3,a2
400007d8:	c8ad0d13          	addi	s10,s10,-886 # 8d2a4c8a <__modsi3+0x4d2a3946>
400007dc:	01b7f5b3          	and	a1,a5,s11
400007e0:	01a98d33          	add	s10,s3,s10
400007e4:	00ed0733          	add	a4,s10,a4
400007e8:	00d5c5b3          	xor	a1,a1,a3
400007ec:	00e585b3          	add	a1,a1,a4
400007f0:	00c5d713          	srli	a4,a1,0xc
400007f4:	01459593          	slli	a1,a1,0x14
400007f8:	00e5e5b3          	or	a1,a1,a4
400007fc:	fffa4737          	lui	a4,0xfffa4
40000800:	94270713          	addi	a4,a4,-1726 # fffa3942 <__modsi3+0xbffa25fe>
40000804:	00c585b3          	add	a1,a1,a2
40000808:	00ea0733          	add	a4,s4,a4
4000080c:	01b5cdb3          	xor	s11,a1,s11
40000810:	00f707b3          	add	a5,a4,a5
40000814:	01b787b3          	add	a5,a5,s11
40000818:	00479713          	slli	a4,a5,0x4
4000081c:	8771fd37          	lui	s10,0x8771f
40000820:	01c7d793          	srli	a5,a5,0x1c
40000824:	00e7e7b3          	or	a5,a5,a4
40000828:	681d0d13          	addi	s10,s10,1665 # 8771f681 <__modsi3+0x4771e33d>
4000082c:	00b787b3          	add	a5,a5,a1
40000830:	00b64733          	xor	a4,a2,a1
40000834:	01af8d33          	add	s10,t6,s10
40000838:	00f74733          	xor	a4,a4,a5
4000083c:	00dd06b3          	add	a3,s10,a3
40000840:	00d706b3          	add	a3,a4,a3
40000844:	00b69713          	slli	a4,a3,0xb
40000848:	6d9d6d37          	lui	s10,0x6d9d6
4000084c:	0156d693          	srli	a3,a3,0x15
40000850:	00e6e6b3          	or	a3,a3,a4
40000854:	122d0d13          	addi	s10,s10,290 # 6d9d6122 <__modsi3+0x2d9d4dde>
40000858:	00f686b3          	add	a3,a3,a5
4000085c:	00f5c733          	xor	a4,a1,a5
40000860:	01a88d33          	add	s10,a7,s10
40000864:	00d74733          	xor	a4,a4,a3
40000868:	00cd0633          	add	a2,s10,a2
4000086c:	00c70633          	add	a2,a4,a2
40000870:	01061713          	slli	a4,a2,0x10
40000874:	fde54d37          	lui	s10,0xfde54
40000878:	01065613          	srli	a2,a2,0x10
4000087c:	00e66633          	or	a2,a2,a4
40000880:	80cd0d13          	addi	s10,s10,-2036 # fde5380c <__modsi3+0xbde524c8>
40000884:	00d60633          	add	a2,a2,a3
40000888:	00d7c733          	xor	a4,a5,a3
4000088c:	01aa8d33          	add	s10,s5,s10
40000890:	00c74733          	xor	a4,a4,a2
40000894:	00bd05b3          	add	a1,s10,a1
40000898:	00b705b3          	add	a1,a4,a1
4000089c:	0095d713          	srli	a4,a1,0x9
400008a0:	a4befd37          	lui	s10,0xa4bef
400008a4:	01759593          	slli	a1,a1,0x17
400008a8:	00e5e5b3          	or	a1,a1,a4
400008ac:	a44d0d13          	addi	s10,s10,-1468 # a4beea44 <__modsi3+0x64bed700>
400008b0:	00c585b3          	add	a1,a1,a2
400008b4:	00c6c733          	xor	a4,a3,a2
400008b8:	01a28d33          	add	s10,t0,s10
400008bc:	00b74733          	xor	a4,a4,a1
400008c0:	00fd07b3          	add	a5,s10,a5
400008c4:	00f707b3          	add	a5,a4,a5
400008c8:	00479713          	slli	a4,a5,0x4
400008cc:	01c7d793          	srli	a5,a5,0x1c
400008d0:	00e7e7b3          	or	a5,a5,a4
400008d4:	4bded737          	lui	a4,0x4bded
400008d8:	fa970713          	addi	a4,a4,-87 # 4bdecfa9 <__modsi3+0xbdebc65>
400008dc:	00b787b3          	add	a5,a5,a1
400008e0:	00b64d33          	xor	s10,a2,a1
400008e4:	00e30733          	add	a4,t1,a4
400008e8:	00d706b3          	add	a3,a4,a3
400008ec:	00fd4d33          	xor	s10,s10,a5
400008f0:	00dd0d33          	add	s10,s10,a3
400008f4:	00bd1713          	slli	a4,s10,0xb
400008f8:	f6bb56b7          	lui	a3,0xf6bb5
400008fc:	015d5d13          	srli	s10,s10,0x15
40000900:	00ed6d33          	or	s10,s10,a4
40000904:	b6068693          	addi	a3,a3,-1184 # f6bb4b60 <__modsi3+0xb6bb381c>
40000908:	00fd0d33          	add	s10,s10,a5
4000090c:	00f5c733          	xor	a4,a1,a5
40000910:	00db06b3          	add	a3,s6,a3
40000914:	00c68633          	add	a2,a3,a2
40000918:	01a74733          	xor	a4,a4,s10
4000091c:	00c70733          	add	a4,a4,a2
40000920:	01071693          	slli	a3,a4,0x10
40000924:	01075713          	srli	a4,a4,0x10
40000928:	00d76733          	or	a4,a4,a3
4000092c:	bebfc6b7          	lui	a3,0xbebfc
40000930:	c7068693          	addi	a3,a3,-912 # bebfbc70 <__modsi3+0x7ebfa92c>
40000934:	01a70733          	add	a4,a4,s10
40000938:	01a7cdb3          	xor	s11,a5,s10
4000093c:	00d386b3          	add	a3,t2,a3
40000940:	00b685b3          	add	a1,a3,a1
40000944:	00edcdb3          	xor	s11,s11,a4
40000948:	00bd8db3          	add	s11,s11,a1
4000094c:	009dd693          	srli	a3,s11,0x9
40000950:	017d9d93          	slli	s11,s11,0x17
40000954:	00ddedb3          	or	s11,s11,a3
40000958:	289b86b7          	lui	a3,0x289b8
4000095c:	ec668693          	addi	a3,a3,-314 # 289b7ec6 <__global_pointer$+0x289b7432>
40000960:	00ed8db3          	add	s11,s11,a4
40000964:	00ed45b3          	xor	a1,s10,a4
40000968:	00de06b3          	add	a3,t3,a3
4000096c:	00f687b3          	add	a5,a3,a5
40000970:	01b5c5b3          	xor	a1,a1,s11
40000974:	00f585b3          	add	a1,a1,a5
40000978:	00459793          	slli	a5,a1,0x4
4000097c:	01c5d593          	srli	a1,a1,0x1c
40000980:	00f5e5b3          	or	a1,a1,a5
40000984:	eaa127b7          	lui	a5,0xeaa12
40000988:	7fa78793          	addi	a5,a5,2042 # eaa127fa <__modsi3+0xaaa114b6>
4000098c:	01b585b3          	add	a1,a1,s11
40000990:	01b74633          	xor	a2,a4,s11
40000994:	00fc87b3          	add	a5,s9,a5
40000998:	01a78d33          	add	s10,a5,s10
4000099c:	00b64633          	xor	a2,a2,a1
400009a0:	01a60633          	add	a2,a2,s10
400009a4:	00b61793          	slli	a5,a2,0xb
400009a8:	d4ef36b7          	lui	a3,0xd4ef3
400009ac:	01565613          	srli	a2,a2,0x15
400009b0:	00f66633          	or	a2,a2,a5
400009b4:	08568693          	addi	a3,a3,133 # d4ef3085 <__modsi3+0x94ef1d41>
400009b8:	00b60633          	add	a2,a2,a1
400009bc:	00bdc7b3          	xor	a5,s11,a1
400009c0:	00d906b3          	add	a3,s2,a3
400009c4:	00c7c7b3          	xor	a5,a5,a2
400009c8:	00e68733          	add	a4,a3,a4
400009cc:	00e78733          	add	a4,a5,a4
400009d0:	01071793          	slli	a5,a4,0x10
400009d4:	048826b7          	lui	a3,0x4882
400009d8:	01075713          	srli	a4,a4,0x10
400009dc:	00f76733          	or	a4,a4,a5
400009e0:	d0568693          	addi	a3,a3,-763 # 4881d05 <__global_pointer$+0x4881271>
400009e4:	00c70733          	add	a4,a4,a2
400009e8:	00c5c7b3          	xor	a5,a1,a2
400009ec:	00de86b3          	add	a3,t4,a3
400009f0:	01b68db3          	add	s11,a3,s11
400009f4:	00e7c7b3          	xor	a5,a5,a4
400009f8:	01b787b3          	add	a5,a5,s11
400009fc:	0097d693          	srli	a3,a5,0x9
40000a00:	d9d4dd37          	lui	s10,0xd9d4d
40000a04:	01779793          	slli	a5,a5,0x17
40000a08:	00d7e7b3          	or	a5,a5,a3
40000a0c:	039d0d13          	addi	s10,s10,57 # d9d4d039 <__modsi3+0x99d4bcf5>
40000a10:	00e787b3          	add	a5,a5,a4
40000a14:	00e646b3          	xor	a3,a2,a4
40000a18:	01a50d33          	add	s10,a0,s10
40000a1c:	00bd05b3          	add	a1,s10,a1
40000a20:	00f6c6b3          	xor	a3,a3,a5
40000a24:	00b686b3          	add	a3,a3,a1
40000a28:	00469593          	slli	a1,a3,0x4
40000a2c:	e6dbad37          	lui	s10,0xe6dba
40000a30:	01c6d693          	srli	a3,a3,0x1c
40000a34:	00b6e6b3          	or	a3,a3,a1
40000a38:	9e5d0d13          	addi	s10,s10,-1563 # e6db99e5 <__modsi3+0xa6db86a1>
40000a3c:	00f686b3          	add	a3,a3,a5
40000a40:	00f745b3          	xor	a1,a4,a5
40000a44:	01a98d33          	add	s10,s3,s10
40000a48:	00d5c5b3          	xor	a1,a1,a3
40000a4c:	00cd0633          	add	a2,s10,a2
40000a50:	00c58633          	add	a2,a1,a2
40000a54:	00b61593          	slli	a1,a2,0xb
40000a58:	01565613          	srli	a2,a2,0x15
40000a5c:	00b66633          	or	a2,a2,a1
40000a60:	1fa285b7          	lui	a1,0x1fa28
40000a64:	cf858593          	addi	a1,a1,-776 # 1fa27cf8 <__global_pointer$+0x1fa27264>
40000a68:	00d60633          	add	a2,a2,a3
40000a6c:	00d7cd33          	xor	s10,a5,a3
40000a70:	00bf05b3          	add	a1,t5,a1
40000a74:	00e58733          	add	a4,a1,a4
40000a78:	00cd4d33          	xor	s10,s10,a2
40000a7c:	00ed0d33          	add	s10,s10,a4
40000a80:	010d1713          	slli	a4,s10,0x10
40000a84:	c4ac55b7          	lui	a1,0xc4ac5
40000a88:	010d5d13          	srli	s10,s10,0x10
40000a8c:	00ed6d33          	or	s10,s10,a4
40000a90:	66558593          	addi	a1,a1,1637 # c4ac5665 <__modsi3+0x84ac4321>
40000a94:	00cd0d33          	add	s10,s10,a2
40000a98:	00c6c733          	xor	a4,a3,a2
40000a9c:	00b805b3          	add	a1,a6,a1
40000aa0:	00f587b3          	add	a5,a1,a5
40000aa4:	01a74733          	xor	a4,a4,s10
40000aa8:	00f70733          	add	a4,a4,a5
40000aac:	00975793          	srli	a5,a4,0x9
40000ab0:	01771713          	slli	a4,a4,0x17
40000ab4:	00f76733          	or	a4,a4,a5
40000ab8:	f42925b7          	lui	a1,0xf4292
40000abc:	01a70733          	add	a4,a4,s10
40000ac0:	fff64793          	xori	a5,a2,-1
40000ac4:	24458593          	addi	a1,a1,580 # f4292244 <__modsi3+0xb4290f00>
40000ac8:	00bc8cb3          	add	s9,s9,a1
40000acc:	00e7e7b3          	or	a5,a5,a4
40000ad0:	01a7c7b3          	xor	a5,a5,s10
40000ad4:	00dc86b3          	add	a3,s9,a3
40000ad8:	00d786b3          	add	a3,a5,a3
40000adc:	00669793          	slli	a5,a3,0x6
40000ae0:	01a6d693          	srli	a3,a3,0x1a
40000ae4:	00f6e6b3          	or	a3,a3,a5
40000ae8:	432b07b7          	lui	a5,0x432b0
40000aec:	00e686b3          	add	a3,a3,a4
40000af0:	fffd4593          	xori	a1,s10,-1
40000af4:	f9778793          	addi	a5,a5,-105 # 432aff97 <__modsi3+0x32aec53>
40000af8:	00fb0b33          	add	s6,s6,a5
40000afc:	00d5e5b3          	or	a1,a1,a3
40000b00:	00cb0633          	add	a2,s6,a2
40000b04:	00e5c5b3          	xor	a1,a1,a4
40000b08:	00c585b3          	add	a1,a1,a2
40000b0c:	00a59793          	slli	a5,a1,0xa
40000b10:	0165d593          	srli	a1,a1,0x16
40000b14:	00f5e5b3          	or	a1,a1,a5
40000b18:	ab9427b7          	lui	a5,0xab942
40000b1c:	00d585b3          	add	a1,a1,a3
40000b20:	fff74613          	xori	a2,a4,-1
40000b24:	3a778793          	addi	a5,a5,935 # ab9423a7 <__modsi3+0x6b941063>
40000b28:	00fa8ab3          	add	s5,s5,a5
40000b2c:	00b66633          	or	a2,a2,a1
40000b30:	01aa8d33          	add	s10,s5,s10
40000b34:	00d64633          	xor	a2,a2,a3
40000b38:	01a60633          	add	a2,a2,s10
40000b3c:	00f61793          	slli	a5,a2,0xf
40000b40:	01165613          	srli	a2,a2,0x11
40000b44:	00f66633          	or	a2,a2,a5
40000b48:	fc93aab7          	lui	s5,0xfc93a
40000b4c:	00b60633          	add	a2,a2,a1
40000b50:	fff6c793          	xori	a5,a3,-1
40000b54:	039a8a93          	addi	s5,s5,57 # fc93a039 <__modsi3+0xbc938cf5>
40000b58:	015a0a33          	add	s4,s4,s5
40000b5c:	00c7e7b3          	or	a5,a5,a2
40000b60:	00ea0733          	add	a4,s4,a4
40000b64:	00b7c7b3          	xor	a5,a5,a1
40000b68:	00e787b3          	add	a5,a5,a4
40000b6c:	00b7d713          	srli	a4,a5,0xb
40000b70:	01579793          	slli	a5,a5,0x15
40000b74:	00e7e7b3          	or	a5,a5,a4
40000b78:	655b6a37          	lui	s4,0x655b6
40000b7c:	00c787b3          	add	a5,a5,a2
40000b80:	fff5c713          	xori	a4,a1,-1
40000b84:	9c3a0a13          	addi	s4,s4,-1597 # 655b59c3 <__modsi3+0x255b467f>
40000b88:	014989b3          	add	s3,s3,s4
40000b8c:	00f76733          	or	a4,a4,a5
40000b90:	00d986b3          	add	a3,s3,a3
40000b94:	00c74733          	xor	a4,a4,a2
40000b98:	00d70733          	add	a4,a4,a3
40000b9c:	00671693          	slli	a3,a4,0x6
40000ba0:	01a75713          	srli	a4,a4,0x1a
40000ba4:	00d76733          	or	a4,a4,a3
40000ba8:	8f0cd9b7          	lui	s3,0x8f0cd
40000bac:	00f70733          	add	a4,a4,a5
40000bb0:	fff64693          	xori	a3,a2,-1
40000bb4:	c9298993          	addi	s3,s3,-878 # 8f0ccc92 <__modsi3+0x4f0cb94e>
40000bb8:	01390933          	add	s2,s2,s3
40000bbc:	00e6e6b3          	or	a3,a3,a4
40000bc0:	00b905b3          	add	a1,s2,a1
40000bc4:	00f6c6b3          	xor	a3,a3,a5
40000bc8:	00b686b3          	add	a3,a3,a1
40000bcc:	00a69593          	slli	a1,a3,0xa
40000bd0:	0166d693          	srli	a3,a3,0x16
40000bd4:	00b6e6b3          	or	a3,a3,a1
40000bd8:	ffeff937          	lui	s2,0xffeff
40000bdc:	00e686b3          	add	a3,a3,a4
40000be0:	fff7c593          	xori	a1,a5,-1
40000be4:	47d90913          	addi	s2,s2,1149 # ffeff47d <__modsi3+0xbfefe139>
40000be8:	00d5e5b3          	or	a1,a1,a3
40000bec:	01238933          	add	s2,t2,s2
40000bf0:	00c90633          	add	a2,s2,a2
40000bf4:	00e5c3b3          	xor	t2,a1,a4
40000bf8:	00c383b3          	add	t2,t2,a2
40000bfc:	00f39613          	slli	a2,t2,0xf
40000c00:	0113d393          	srli	t2,t2,0x11
40000c04:	00c3e3b3          	or	t2,t2,a2
40000c08:	858465b7          	lui	a1,0x85846
40000c0c:	00d383b3          	add	t2,t2,a3
40000c10:	fff74613          	xori	a2,a4,-1
40000c14:	dd158593          	addi	a1,a1,-559 # 85845dd1 <__modsi3+0x45844a8d>
40000c18:	00766633          	or	a2,a2,t2
40000c1c:	00b285b3          	add	a1,t0,a1
40000c20:	00f587b3          	add	a5,a1,a5
40000c24:	00d642b3          	xor	t0,a2,a3
40000c28:	00f282b3          	add	t0,t0,a5
40000c2c:	00b2d793          	srli	a5,t0,0xb
40000c30:	01529293          	slli	t0,t0,0x15
40000c34:	00f2e2b3          	or	t0,t0,a5
40000c38:	6fa88637          	lui	a2,0x6fa88
40000c3c:	007282b3          	add	t0,t0,t2
40000c40:	fff6c793          	xori	a5,a3,-1
40000c44:	e4f60613          	addi	a2,a2,-433 # 6fa87e4f <__modsi3+0x2fa86b0b>
40000c48:	0057e7b3          	or	a5,a5,t0
40000c4c:	00cf8633          	add	a2,t6,a2
40000c50:	00e60733          	add	a4,a2,a4
40000c54:	0077cfb3          	xor	t6,a5,t2
40000c58:	00ef8fb3          	add	t6,t6,a4
40000c5c:	006f9793          	slli	a5,t6,0x6
40000c60:	01afdf93          	srli	t6,t6,0x1a
40000c64:	00ffefb3          	or	t6,t6,a5
40000c68:	fe2ce737          	lui	a4,0xfe2ce
40000c6c:	005f8fb3          	add	t6,t6,t0
40000c70:	fff3c793          	xori	a5,t2,-1
40000c74:	6e070713          	addi	a4,a4,1760 # fe2ce6e0 <__modsi3+0xbe2cd39c>
40000c78:	01f7e7b3          	or	a5,a5,t6
40000c7c:	00ef0733          	add	a4,t5,a4
40000c80:	00d706b3          	add	a3,a4,a3
40000c84:	0057cf33          	xor	t5,a5,t0
40000c88:	00df0f33          	add	t5,t5,a3
40000c8c:	00af1793          	slli	a5,t5,0xa
40000c90:	016f5f13          	srli	t5,t5,0x16
40000c94:	00ff6f33          	or	t5,t5,a5
40000c98:	a30147b7          	lui	a5,0xa3014
40000c9c:	01ff0f33          	add	t5,t5,t6
40000ca0:	fff2c593          	xori	a1,t0,-1
40000ca4:	31478793          	addi	a5,a5,788 # a3014314 <__modsi3+0x63012fd0>
40000ca8:	01e5e5b3          	or	a1,a1,t5
40000cac:	00fe8eb3          	add	t4,t4,a5
40000cb0:	01f5c5b3          	xor	a1,a1,t6
40000cb4:	007e83b3          	add	t2,t4,t2
40000cb8:	007585b3          	add	a1,a1,t2
40000cbc:	00f59793          	slli	a5,a1,0xf
40000cc0:	0115d593          	srli	a1,a1,0x11
40000cc4:	00f5e5b3          	or	a1,a1,a5
40000cc8:	4e0817b7          	lui	a5,0x4e081
40000ccc:	01e585b3          	add	a1,a1,t5
40000cd0:	ffffc613          	xori	a2,t6,-1
40000cd4:	1a178793          	addi	a5,a5,417 # 4e0811a1 <__modsi3+0xe07fe5d>
40000cd8:	00b66633          	or	a2,a2,a1
40000cdc:	00fe0e33          	add	t3,t3,a5
40000ce0:	01e64633          	xor	a2,a2,t5
40000ce4:	005e02b3          	add	t0,t3,t0
40000ce8:	00560633          	add	a2,a2,t0
40000cec:	00b65793          	srli	a5,a2,0xb
40000cf0:	01561613          	slli	a2,a2,0x15
40000cf4:	00f66633          	or	a2,a2,a5
40000cf8:	f7538737          	lui	a4,0xf7538
40000cfc:	00b60633          	add	a2,a2,a1
40000d00:	ffff4793          	xori	a5,t5,-1
40000d04:	e8270713          	addi	a4,a4,-382 # f7537e82 <__modsi3+0xb7536b3e>
40000d08:	00c7e7b3          	or	a5,a5,a2
40000d0c:	00e30333          	add	t1,t1,a4
40000d10:	00b7c7b3          	xor	a5,a5,a1
40000d14:	01f30fb3          	add	t6,t1,t6
40000d18:	01f787b3          	add	a5,a5,t6
40000d1c:	00679713          	slli	a4,a5,0x6
40000d20:	01a7d793          	srli	a5,a5,0x1a
40000d24:	00e7e7b3          	or	a5,a5,a4
40000d28:	bd3af6b7          	lui	a3,0xbd3af
40000d2c:	00c787b3          	add	a5,a5,a2
40000d30:	fff5c713          	xori	a4,a1,-1
40000d34:	23568693          	addi	a3,a3,565 # bd3af235 <__modsi3+0x7d3adef1>
40000d38:	00d888b3          	add	a7,a7,a3
40000d3c:	00f76733          	or	a4,a4,a5
40000d40:	00c74733          	xor	a4,a4,a2
40000d44:	01e88f33          	add	t5,a7,t5
40000d48:	01e70733          	add	a4,a4,t5
40000d4c:	00a71693          	slli	a3,a4,0xa
40000d50:	01675713          	srli	a4,a4,0x16
40000d54:	00d76733          	or	a4,a4,a3
40000d58:	2ad7d8b7          	lui	a7,0x2ad7d
40000d5c:	00f70733          	add	a4,a4,a5
40000d60:	fff64693          	xori	a3,a2,-1
40000d64:	2bb88893          	addi	a7,a7,699 # 2ad7d2bb <__global_pointer$+0x2ad7c827>
40000d68:	00e6e6b3          	or	a3,a3,a4
40000d6c:	01180833          	add	a6,a6,a7
40000d70:	00b805b3          	add	a1,a6,a1
40000d74:	00f6c6b3          	xor	a3,a3,a5
40000d78:	00b686b3          	add	a3,a3,a1
40000d7c:	00f69593          	slli	a1,a3,0xf
40000d80:	0116d693          	srli	a3,a3,0x11
40000d84:	00b6e6b3          	or	a3,a3,a1
40000d88:	eb86d837          	lui	a6,0xeb86d
40000d8c:	00e686b3          	add	a3,a3,a4
40000d90:	fff7c593          	xori	a1,a5,-1
40000d94:	39180813          	addi	a6,a6,913 # eb86d391 <__modsi3+0xab86c04d>
40000d98:	00d5e5b3          	or	a1,a1,a3
40000d9c:	01050533          	add	a0,a0,a6
40000da0:	00e5c5b3          	xor	a1,a1,a4
40000da4:	00c50633          	add	a2,a0,a2
40000da8:	00c58633          	add	a2,a1,a2
40000dac:	00b65593          	srli	a1,a2,0xb
40000db0:	01561613          	slli	a2,a2,0x15
40000db4:	00c5e633          	or	a2,a1,a2
40000db8:	00c12583          	lw	a1,12(sp)
40000dbc:	00d484b3          	add	s1,s1,a3
40000dc0:	009604b3          	add	s1,a2,s1
40000dc4:	00db86b3          	add	a3,s7,a3
40000dc8:	00ec0733          	add	a4,s8,a4
40000dcc:	00f587b3          	add	a5,a1,a5
40000dd0:	00942623          	sw	s1,12(s0)
40000dd4:	08c12083          	lw	ra,140(sp)
40000dd8:	00f42423          	sw	a5,8(s0)
40000ddc:	00d42823          	sw	a3,16(s0)
40000de0:	00e42a23          	sw	a4,20(s0)
40000de4:	08812403          	lw	s0,136(sp)
40000de8:	08412483          	lw	s1,132(sp)
40000dec:	08012903          	lw	s2,128(sp)
40000df0:	07c12983          	lw	s3,124(sp)
40000df4:	07812a03          	lw	s4,120(sp)
40000df8:	07412a83          	lw	s5,116(sp)
40000dfc:	07012b03          	lw	s6,112(sp)
40000e00:	06c12b83          	lw	s7,108(sp)
40000e04:	06812c03          	lw	s8,104(sp)
40000e08:	06412c83          	lw	s9,100(sp)
40000e0c:	06012d03          	lw	s10,96(sp)
40000e10:	05c12d83          	lw	s11,92(sp)
40000e14:	09010113          	addi	sp,sp,144
40000e18:	00008067          	jalr	zero,0(ra)
40000e1c:	04000613          	addi	a2,zero,64
40000e20:	01010513          	addi	a0,sp,16
40000e24:	418000ef          	jal	ra,4000123c <memcpy>
40000e28:	01010713          	addi	a4,sp,16
40000e2c:	b90ff06f          	jal	zero,400001bc <md5_process+0x5c>

40000e30 <md5_init>:
40000e30:	674527b7          	lui	a5,0x67452
40000e34:	30178793          	addi	a5,a5,769 # 67452301 <__modsi3+0x27450fbd>
40000e38:	00f52423          	sw	a5,8(a0)
40000e3c:	efcdb7b7          	lui	a5,0xefcdb
40000e40:	b8978793          	addi	a5,a5,-1143 # efcdab89 <__modsi3+0xafcd9845>
40000e44:	00f52623          	sw	a5,12(a0)
40000e48:	98bae7b7          	lui	a5,0x98bae
40000e4c:	cfe78793          	addi	a5,a5,-770 # 98badcfe <__modsi3+0x58bac9ba>
40000e50:	00f52823          	sw	a5,16(a0)
40000e54:	103257b7          	lui	a5,0x10325
40000e58:	47678793          	addi	a5,a5,1142 # 10325476 <__global_pointer$+0x103249e2>
40000e5c:	00052223          	sw	zero,4(a0)
40000e60:	00052023          	sw	zero,0(a0)
40000e64:	00f52a23          	sw	a5,20(a0)
40000e68:	00008067          	jalr	zero,0(ra)

40000e6c <md5_append>:
40000e6c:	16c05263          	bge	zero,a2,40000fd0 <md5_append+0x164>
40000e70:	fe010113          	addi	sp,sp,-32
40000e74:	00912a23          	sw	s1,20(sp)
40000e78:	00050493          	addi	s1,a0,0
40000e7c:	0044a683          	lw	a3,4(s1)
40000e80:	00052503          	lw	a0,0(a0)
40000e84:	00361713          	slli	a4,a2,0x3
40000e88:	41d65793          	srai	a5,a2,0x1d
40000e8c:	01212823          	sw	s2,16(sp)
40000e90:	01312623          	sw	s3,12(sp)
40000e94:	00112e23          	sw	ra,28(sp)
40000e98:	00812c23          	sw	s0,24(sp)
40000e9c:	01412423          	sw	s4,8(sp)
40000ea0:	01512223          	sw	s5,4(sp)
40000ea4:	00d787b3          	add	a5,a5,a3
40000ea8:	00e506b3          	add	a3,a0,a4
40000eac:	00f4a223          	sw	a5,4(s1)
40000eb0:	00d4a023          	sw	a3,0(s1)
40000eb4:	00060913          	addi	s2,a2,0
40000eb8:	00058993          	addi	s3,a1,0
40000ebc:	00e6f663          	bgeu	a3,a4,40000ec8 <md5_append+0x5c>
40000ec0:	00178793          	addi	a5,a5,1
40000ec4:	00f4a223          	sw	a5,4(s1)
40000ec8:	00355513          	srli	a0,a0,0x3
40000ecc:	03f57513          	andi	a0,a0,63
40000ed0:	08051663          	bne	a0,zero,40000f5c <md5_append+0xf0>
40000ed4:	03f00793          	addi	a5,zero,63
40000ed8:	0d27d463          	bge	a5,s2,40000fa0 <md5_append+0x134>
40000edc:	00098413          	addi	s0,s3,0
40000ee0:	01298ab3          	add	s5,s3,s2
40000ee4:	03f00a13          	addi	s4,zero,63
40000ee8:	00040593          	addi	a1,s0,0
40000eec:	00048513          	addi	a0,s1,0
40000ef0:	04040413          	addi	s0,s0,64
40000ef4:	a6cff0ef          	jal	ra,40000160 <md5_process>
40000ef8:	408a87b3          	sub	a5,s5,s0
40000efc:	fefa46e3          	blt	s4,a5,40000ee8 <md5_append+0x7c>
40000f00:	fc090693          	addi	a3,s2,-64
40000f04:	0066d713          	srli	a4,a3,0x6
40000f08:	04000793          	addi	a5,zero,64
40000f0c:	012a5663          	bge	s4,s2,40000f18 <md5_append+0xac>
40000f10:	00170793          	addi	a5,a4,1
40000f14:	00679793          	slli	a5,a5,0x6
40000f18:	03f00613          	addi	a2,zero,63
40000f1c:	00f989b3          	add	s3,s3,a5
40000f20:	00000793          	addi	a5,zero,0
40000f24:	01265663          	bge	a2,s2,40000f30 <md5_append+0xc4>
40000f28:	40e00733          	sub	a4,zero,a4
40000f2c:	00671793          	slli	a5,a4,0x6
40000f30:	00f68933          	add	s2,a3,a5
40000f34:	06091663          	bne	s2,zero,40000fa0 <md5_append+0x134>
40000f38:	01c12083          	lw	ra,28(sp)
40000f3c:	01812403          	lw	s0,24(sp)
40000f40:	01412483          	lw	s1,20(sp)
40000f44:	01012903          	lw	s2,16(sp)
40000f48:	00c12983          	lw	s3,12(sp)
40000f4c:	00812a03          	lw	s4,8(sp)
40000f50:	00412a83          	lw	s5,4(sp)
40000f54:	02010113          	addi	sp,sp,32
40000f58:	00008067          	jalr	zero,0(ra)
40000f5c:	00a90a33          	add	s4,s2,a0
40000f60:	04000413          	addi	s0,zero,64
40000f64:	07445863          	bge	s0,s4,40000fd4 <md5_append+0x168>
40000f68:	40a40433          	sub	s0,s0,a0
40000f6c:	01848a13          	addi	s4,s1,24
40000f70:	00098593          	addi	a1,s3,0
40000f74:	00040613          	addi	a2,s0,0
40000f78:	00aa0533          	add	a0,s4,a0
40000f7c:	2c0000ef          	jal	ra,4000123c <memcpy>
40000f80:	000a0593          	addi	a1,s4,0
40000f84:	00048513          	addi	a0,s1,0
40000f88:	9d8ff0ef          	jal	ra,40000160 <md5_process>
40000f8c:	40890933          	sub	s2,s2,s0
40000f90:	03f00793          	addi	a5,zero,63
40000f94:	008989b3          	add	s3,s3,s0
40000f98:	f527c2e3          	blt	a5,s2,40000edc <md5_append+0x70>
40000f9c:	f8090ee3          	beq	s2,zero,40000f38 <md5_append+0xcc>
40000fa0:	01812403          	lw	s0,24(sp)
40000fa4:	01c12083          	lw	ra,28(sp)
40000fa8:	00812a03          	lw	s4,8(sp)
40000fac:	00412a83          	lw	s5,4(sp)
40000fb0:	00090613          	addi	a2,s2,0
40000fb4:	00098593          	addi	a1,s3,0
40000fb8:	01012903          	lw	s2,16(sp)
40000fbc:	00c12983          	lw	s3,12(sp)
40000fc0:	01848513          	addi	a0,s1,24
40000fc4:	01412483          	lw	s1,20(sp)
40000fc8:	02010113          	addi	sp,sp,32
40000fcc:	2700006f          	jal	zero,4000123c <memcpy>
40000fd0:	00008067          	jalr	zero,0(ra)
40000fd4:	01848a93          	addi	s5,s1,24
40000fd8:	00090613          	addi	a2,s2,0
40000fdc:	00098593          	addi	a1,s3,0
40000fe0:	00aa8533          	add	a0,s5,a0
40000fe4:	258000ef          	jal	ra,4000123c <memcpy>
40000fe8:	f48a18e3          	bne	s4,s0,40000f38 <md5_append+0xcc>
40000fec:	000a8593          	addi	a1,s5,0
40000ff0:	00048513          	addi	a0,s1,0
40000ff4:	96cff0ef          	jal	ra,40000160 <md5_process>
40000ff8:	f41ff06f          	jal	zero,40000f38 <md5_append+0xcc>

40000ffc <md5_finish>:
40000ffc:	fe010113          	addi	sp,sp,-32
40001000:	00812c23          	sw	s0,24(sp)
40001004:	00912a23          	sw	s1,20(sp)
40001008:	00112e23          	sw	ra,28(sp)
4000100c:	00058493          	addi	s1,a1,0
40001010:	00050413          	addi	s0,a0,0
40001014:	00810613          	addi	a2,sp,8
40001018:	00000793          	addi	a5,zero,0
4000101c:	00800593          	addi	a1,zero,8
40001020:	ffc7f713          	andi	a4,a5,-4
40001024:	00e40733          	add	a4,s0,a4
40001028:	00072703          	lw	a4,0(a4)
4000102c:	00379693          	slli	a3,a5,0x3
40001030:	0186f693          	andi	a3,a3,24
40001034:	00d75733          	srl	a4,a4,a3
40001038:	00e60023          	sb	a4,0(a2)
4000103c:	00178793          	addi	a5,a5,1
40001040:	00160613          	addi	a2,a2,1
40001044:	fcb79ee3          	bne	a5,a1,40001020 <md5_finish+0x24>
40001048:	00042603          	lw	a2,0(s0)
4000104c:	00400593          	addi	a1,zero,4
40001050:	00365793          	srli	a5,a2,0x3
40001054:	03700613          	addi	a2,zero,55
40001058:	40f60633          	sub	a2,a2,a5
4000105c:	03f67613          	andi	a2,a2,63
40001060:	00160613          	addi	a2,a2,1
40001064:	00040513          	addi	a0,s0,0
40001068:	e05ff0ef          	jal	ra,40000e6c <md5_append>
4000106c:	00810593          	addi	a1,sp,8
40001070:	00800613          	addi	a2,zero,8
40001074:	00040513          	addi	a0,s0,0
40001078:	df5ff0ef          	jal	ra,40000e6c <md5_append>
4000107c:	00000793          	addi	a5,zero,0
40001080:	01000593          	addi	a1,zero,16
40001084:	ffc7f713          	andi	a4,a5,-4
40001088:	00e40733          	add	a4,s0,a4
4000108c:	00872703          	lw	a4,8(a4)
40001090:	00379693          	slli	a3,a5,0x3
40001094:	0186f693          	andi	a3,a3,24
40001098:	00f48633          	add	a2,s1,a5
4000109c:	00d75733          	srl	a4,a4,a3
400010a0:	00e60023          	sb	a4,0(a2)
400010a4:	00178793          	addi	a5,a5,1
400010a8:	fcb79ee3          	bne	a5,a1,40001084 <md5_finish+0x88>
400010ac:	01c12083          	lw	ra,28(sp)
400010b0:	01812403          	lw	s0,24(sp)
400010b4:	01412483          	lw	s1,20(sp)
400010b8:	02010113          	addi	sp,sp,32
400010bc:	00008067          	jalr	zero,0(ra)

400010c0 <getchar>:
400010c0:	ff804783          	lbu	a5,-8(zero) # fffffff8 <__modsi3+0xbfffecb4>
400010c4:	0027f793          	andi	a5,a5,2
400010c8:	fe078ce3          	beq	a5,zero,400010c0 <getchar>
400010cc:	ffc04503          	lbu	a0,-4(zero) # fffffffc <__modsi3+0xbfffecb8>
400010d0:	0ff57513          	andi	a0,a0,255
400010d4:	00008067          	jalr	zero,0(ra)

400010d8 <putchar>:
400010d8:	ff804783          	lbu	a5,-8(zero) # fffffff8 <__modsi3+0xbfffecb4>
400010dc:	0017f793          	andi	a5,a5,1
400010e0:	fe078ce3          	beq	a5,zero,400010d8 <putchar>
400010e4:	0ff57793          	andi	a5,a0,255
400010e8:	fef00e23          	sb	a5,-4(zero) # fffffffc <__modsi3+0xbfffecb8>
400010ec:	00008067          	jalr	zero,0(ra)

400010f0 <time>:
400010f0:	ffff87b7          	lui	a5,0xffff8
400010f4:	0007a503          	lw	a0,0(a5) # ffff8000 <__modsi3+0xbfff6cbc>
400010f8:	00008067          	jalr	zero,0(ra)

400010fc <putnumber>:
400010fc:	fd010113          	addi	sp,sp,-48
40001100:	01312e23          	sw	s3,28(sp)
40001104:	01512a23          	sw	s5,20(sp)
40001108:	00410993          	addi	s3,sp,4
4000110c:	00a00a93          	addi	s5,zero,10
40001110:	02912223          	sw	s1,36(sp)
40001114:	03212023          	sw	s2,32(sp)
40001118:	01612823          	sw	s6,16(sp)
4000111c:	02112623          	sw	ra,44(sp)
40001120:	02812423          	sw	s0,40(sp)
40001124:	01412c23          	sw	s4,24(sp)
40001128:	00050493          	addi	s1,a0,0
4000112c:	000107a3          	sb	zero,15(sp)
40001130:	00098913          	addi	s2,s3,0
40001134:	413a8ab3          	sub	s5,s5,s3
40001138:	00900b13          	addi	s6,zero,9
4000113c:	00a00593          	addi	a1,zero,10
40001140:	00048513          	addi	a0,s1,0
40001144:	1cc000ef          	jal	ra,40001310 <__umodsi3>
40001148:	03050413          	addi	s0,a0,48
4000114c:	0ff47413          	andi	s0,s0,255
40001150:	00048513          	addi	a0,s1,0
40001154:	00890523          	sb	s0,10(s2)
40001158:	00a00593          	addi	a1,zero,10
4000115c:	16c000ef          	jal	ra,400012c8 <__udivsi3>
40001160:	00048a13          	addi	s4,s1,0
40001164:	012a8733          	add	a4,s5,s2
40001168:	00050493          	addi	s1,a0,0
4000116c:	fff90913          	addi	s2,s2,-1
40001170:	fd4b66e3          	bltu	s6,s4,4000113c <putnumber+0x40>
40001174:	00e98733          	add	a4,s3,a4
40001178:	00170713          	addi	a4,a4,1
4000117c:	ff804783          	lbu	a5,-8(zero) # fffffff8 <__modsi3+0xbfffecb4>
40001180:	0017f793          	andi	a5,a5,1
40001184:	fe078ce3          	beq	a5,zero,4000117c <putnumber+0x80>
40001188:	fe800e23          	sb	s0,-4(zero) # fffffffc <__modsi3+0xbfffecb8>
4000118c:	00074403          	lbu	s0,0(a4)
40001190:	fe0414e3          	bne	s0,zero,40001178 <putnumber+0x7c>
40001194:	ff804783          	lbu	a5,-8(zero) # fffffff8 <__modsi3+0xbfffecb4>
40001198:	0017f793          	andi	a5,a5,1
4000119c:	fe078ce3          	beq	a5,zero,40001194 <putnumber+0x98>
400011a0:	00a00793          	addi	a5,zero,10
400011a4:	fef00e23          	sb	a5,-4(zero) # fffffffc <__modsi3+0xbfffecb8>
400011a8:	02c12083          	lw	ra,44(sp)
400011ac:	02812403          	lw	s0,40(sp)
400011b0:	02412483          	lw	s1,36(sp)
400011b4:	02012903          	lw	s2,32(sp)
400011b8:	01c12983          	lw	s3,28(sp)
400011bc:	01812a03          	lw	s4,24(sp)
400011c0:	01412a83          	lw	s5,20(sp)
400011c4:	01012b03          	lw	s6,16(sp)
400011c8:	03010113          	addi	sp,sp,48
400011cc:	00008067          	jalr	zero,0(ra)

400011d0 <putstring>:
400011d0:	00054703          	lbu	a4,0(a0)
400011d4:	02070063          	beq	a4,zero,400011f4 <putstring+0x24>
400011d8:	00150513          	addi	a0,a0,1
400011dc:	ff804783          	lbu	a5,-8(zero) # fffffff8 <__modsi3+0xbfffecb4>
400011e0:	0017f793          	andi	a5,a5,1
400011e4:	fe078ce3          	beq	a5,zero,400011dc <putstring+0xc>
400011e8:	fee00e23          	sb	a4,-4(zero) # fffffffc <__modsi3+0xbfffecb8>
400011ec:	00054703          	lbu	a4,0(a0)
400011f0:	fe0714e3          	bne	a4,zero,400011d8 <putstring+0x8>
400011f4:	00000513          	addi	a0,zero,0
400011f8:	00008067          	jalr	zero,0(ra)

400011fc <puts>:
400011fc:	00054703          	lbu	a4,0(a0)
40001200:	02070063          	beq	a4,zero,40001220 <puts+0x24>
40001204:	00150513          	addi	a0,a0,1
40001208:	ff804783          	lbu	a5,-8(zero) # fffffff8 <__modsi3+0xbfffecb4>
4000120c:	0017f793          	andi	a5,a5,1
40001210:	fe078ce3          	beq	a5,zero,40001208 <puts+0xc>
40001214:	fee00e23          	sb	a4,-4(zero) # fffffffc <__modsi3+0xbfffecb8>
40001218:	00054703          	lbu	a4,0(a0)
4000121c:	fe0714e3          	bne	a4,zero,40001204 <puts+0x8>
40001220:	ff804783          	lbu	a5,-8(zero) # fffffff8 <__modsi3+0xbfffecb4>
40001224:	0017f793          	andi	a5,a5,1
40001228:	fe078ce3          	beq	a5,zero,40001220 <puts+0x24>
4000122c:	00a00793          	addi	a5,zero,10
40001230:	fef00e23          	sb	a5,-4(zero) # fffffffc <__modsi3+0xbfffecb8>
40001234:	00000513          	addi	a0,zero,0
40001238:	00008067          	jalr	zero,0(ra)

4000123c <memcpy>:
4000123c:	00050793          	addi	a5,a0,0
40001240:	02060063          	beq	a2,zero,40001260 <memcpy+0x24>
40001244:	00c50533          	add	a0,a0,a2
40001248:	0005c703          	lbu	a4,0(a1)
4000124c:	00178793          	addi	a5,a5,1
40001250:	00158593          	addi	a1,a1,1
40001254:	fee78fa3          	sb	a4,-1(a5)
40001258:	fef518e3          	bne	a0,a5,40001248 <memcpy+0xc>
4000125c:	00008067          	jalr	zero,0(ra)
40001260:	00008067          	jalr	zero,0(ra)

40001264 <strlen>:
40001264:	00054783          	lbu	a5,0(a0)
40001268:	00050713          	addi	a4,a0,0
4000126c:	00000513          	addi	a0,zero,0
40001270:	00078c63          	beq	a5,zero,40001288 <strlen+0x24>
40001274:	00150513          	addi	a0,a0,1
40001278:	00a707b3          	add	a5,a4,a0
4000127c:	0007c783          	lbu	a5,0(a5)
40001280:	fe079ae3          	bne	a5,zero,40001274 <strlen+0x10>
40001284:	00008067          	jalr	zero,0(ra)
40001288:	00008067          	jalr	zero,0(ra)

4000128c <strcmp>:
4000128c:	00050693          	addi	a3,a0,0
40001290:	00c0006f          	jal	zero,4000129c <strcmp+0x10>
40001294:	40f70533          	sub	a0,a4,a5
40001298:	02f71263          	bne	a4,a5,400012bc <strcmp+0x30>
4000129c:	0006c703          	lbu	a4,0(a3)
400012a0:	0005c783          	lbu	a5,0(a1)
400012a4:	00168693          	addi	a3,a3,1
400012a8:	00158593          	addi	a1,a1,1
400012ac:	00f76633          	or	a2,a4,a5
400012b0:	fe0612e3          	bne	a2,zero,40001294 <strcmp+0x8>
400012b4:	00000513          	addi	a0,zero,0
400012b8:	00008067          	jalr	zero,0(ra)
400012bc:	00008067          	jalr	zero,0(ra)

400012c0 <__divsi3>:
400012c0:	06054063          	blt	a0,zero,40001320 <__umodsi3+0x10>
400012c4:	0605c663          	blt	a1,zero,40001330 <__umodsi3+0x20>

400012c8 <__udivsi3>:
400012c8:	00058613          	addi	a2,a1,0
400012cc:	00050593          	addi	a1,a0,0
400012d0:	fff00513          	addi	a0,zero,-1
400012d4:	02060c63          	beq	a2,zero,4000130c <__udivsi3+0x44>
400012d8:	00100693          	addi	a3,zero,1
400012dc:	00b67a63          	bgeu	a2,a1,400012f0 <__udivsi3+0x28>
400012e0:	00c05863          	bge	zero,a2,400012f0 <__udivsi3+0x28>
400012e4:	00161613          	slli	a2,a2,0x1
400012e8:	00169693          	slli	a3,a3,0x1
400012ec:	feb66ae3          	bltu	a2,a1,400012e0 <__udivsi3+0x18>
400012f0:	00000513          	addi	a0,zero,0
400012f4:	00c5e663          	bltu	a1,a2,40001300 <__udivsi3+0x38>
400012f8:	40c585b3          	sub	a1,a1,a2
400012fc:	00d56533          	or	a0,a0,a3
40001300:	0016d693          	srli	a3,a3,0x1
40001304:	00165613          	srli	a2,a2,0x1
40001308:	fe0696e3          	bne	a3,zero,400012f4 <__udivsi3+0x2c>
4000130c:	00008067          	jalr	zero,0(ra)

40001310 <__umodsi3>:
40001310:	00008293          	addi	t0,ra,0
40001314:	fb5ff0ef          	jal	ra,400012c8 <__udivsi3>
40001318:	00058513          	addi	a0,a1,0
4000131c:	00028067          	jalr	zero,0(t0)
40001320:	40a00533          	sub	a0,zero,a0
40001324:	00b04863          	blt	zero,a1,40001334 <__umodsi3+0x24>
40001328:	40b005b3          	sub	a1,zero,a1
4000132c:	f9dff06f          	jal	zero,400012c8 <__udivsi3>
40001330:	40b005b3          	sub	a1,zero,a1
40001334:	00008293          	addi	t0,ra,0
40001338:	f91ff0ef          	jal	ra,400012c8 <__udivsi3>
4000133c:	40a00533          	sub	a0,zero,a0
40001340:	00028067          	jalr	zero,0(t0)

40001344 <__modsi3>:
40001344:	00008293          	addi	t0,ra,0
40001348:	0005ca63          	blt	a1,zero,4000135c <__modsi3+0x18>
4000134c:	00054c63          	blt	a0,zero,40001364 <__modsi3+0x20>
40001350:	f79ff0ef          	jal	ra,400012c8 <__udivsi3>
40001354:	00058513          	addi	a0,a1,0
40001358:	00028067          	jalr	zero,0(t0)
4000135c:	40b005b3          	sub	a1,zero,a1
40001360:	fe0558e3          	bge	a0,zero,40001350 <__modsi3+0xc>
40001364:	40a00533          	sub	a0,zero,a0
40001368:	f61ff0ef          	jal	ra,400012c8 <__udivsi3>
4000136c:	40b00533          	sub	a0,zero,a1
40001370:	00028067          	jalr	zero,0(t0)

Disassembly of section .rodata:

00000004 <pad.0>:
   4:	0080                	c.addi4spn	s0,sp,64
	...
  42:	0000                	c.unimp
  44:	3464                	c.fld	fs1,232(s0)
  46:	6431                	c.lui	s0,0xc
  48:	6338                	c.flw	fa4,64(a4)
  4a:	3964                	c.fld	fs1,240(a0)
  4c:	6638                	c.flw	fa4,72(a2)
  4e:	3030                	c.fld	fa2,96(s0)
  50:	3262                	c.fldsp	ft4,56(sp)
  52:	3430                	c.fld	fa2,104(s0)
  54:	3965                	c.jal	fffffd0c <__modsi3+0xbfffe9c8>
  56:	3038                	c.fld	fa4,96(s0)
  58:	3930                	c.fld	fa2,112(a0)
  5a:	3839                	c.jal	fffff878 <__modsi3+0xbfffe534>
  5c:	6365                	c.lui	t1,0x19
  5e:	3866                	c.fldsp	fa6,120(sp)
  60:	3234                	c.fld	fa3,96(a2)
  62:	00006537          	lui	a0,0x6
  66:	0000                	c.unimp
  68:	3130                	c.fld	fa2,96(a0)
  6a:	3332                	c.fldsp	ft6,296(sp)
  6c:	3534                	c.fld	fa3,104(a0)
  6e:	3736                	c.fldsp	fa4,360(sp)
  70:	3938                	c.fld	fa4,112(a0)
  72:	6261                	c.lui	tp,0x18
  74:	66656463          	bltu	a0,t1,6dc <__BSS_END__+0x448>
  78:	0000                	c.unimp
  7a:	0000                	c.unimp
  7c:	2a2a                	c.fldsp	fs4,136(sp)
  7e:	2a2a                	c.fldsp	fs4,136(sp)
  80:	4520                	c.lw	s0,72(a0)
  82:	5252                	c.lwsp	tp,52(sp)
  84:	202c524f          	fnmadd.s	ft4,fs8,ft2,ft4,unknown
  88:	756f6873          	csrrsi	a6,0x756,30
  8c:	646c                	c.flw	fa1,76(s0)
  8e:	6220                	c.flw	fs0,64(a2)
  90:	3a65                	c.jal	fffffa48 <__modsi3+0xbfffe704>
  92:	0020                	c.addi4spn	s0,sp,8
  94:	646d                	c.lui	s0,0x1b
  96:	2035                	c.jal	c2 <pad.0+0xbe>
  98:	666c6573          	csrrsi	a0,0x666,24
  9c:	742d                	c.lui	s0,0xfffeb
  9e:	7365                	c.lui	t1,0xffff9
  a0:	2074                	c.fld	fa3,192(s0)
  a2:	706d6f63          	bltu	s10,t1,7c0 <__BSS_END__+0x52c>
  a6:	656c                	c.flw	fa1,76(a0)
  a8:	6574                	c.flw	fa3,76(a0)
  aa:	2064                	c.fld	fs1,192(s0)
  ac:	63637573          	csrrci	a0,0x636,6
  b0:	7365                	c.lui	t1,0xffff9
  b2:	6c756673          	csrrsi	a2,0x6c7,10
  b6:	796c                	c.flw	fa1,116(a0)
  b8:	002e                	c.slli	zero,0xb
  ba:	0000                	c.unimp
  bc:	0061                	c.addi	zero,24
  be:	0000                	c.unimp
  c0:	6330                	c.flw	fa2,64(a4)
  c2:	35373163          	0x35373163
  c6:	3962                	c.fldsp	fs2,56(sp)
  c8:	31663063          	0x31663063
  cc:	3662                	c.fldsp	fa2,56(sp)
  ce:	3861                	c.jal	fffff966 <__modsi3+0xbfffe622>
  d0:	33633133          	0x33633133
  d4:	3939                	c.jal	fffffcf2 <__modsi3+0xbfffe9ae>
  d6:	3265                	c.jal	fffffa7e <__modsi3+0xbfffe73a>
  d8:	3936                	c.fldsp	fs2,360(sp)
  da:	36323737          	lui	a4,0x36323
  de:	3136                	c.fldsp	ft2,360(sp)
  e0:	0000                	c.unimp
  e2:	0000                	c.unimp
  e4:	6261                	c.lui	tp,0x18
  e6:	30390063          	beq	s2,gp,3e6 <__BSS_END__+0x152>
  ea:	3130                	c.fld	fa2,96(a0)
  ec:	3035                	c.jal	fffff918 <__modsi3+0xbfffe5d4>
  ee:	3839                	c.jal	fffff90c <__modsi3+0xbfffe5c8>
  f0:	32646333          	0x32646333
  f4:	6634                	c.flw	fa3,72(a2)
  f6:	3062                	c.fldsp	ft0,56(sp)
  f8:	3664                	c.fld	fs1,232(a2)
  fa:	3639                	c.jal	fffffc08 <__modsi3+0xbfffe8c4>
  fc:	64376633          	0x64376633
 100:	3832                	c.fldsp	fa6,296(sp)
 102:	3165                	c.jal	fffffdaa <__modsi3+0xbfffea66>
 104:	32376637          	lui	a2,0x32376
 108:	0000                	c.unimp
 10a:	0000                	c.unimp
 10c:	656d                	c.lui	a0,0x1b
 10e:	67617373          	csrrci	t1,0x676,2
 112:	2065                	c.jal	1ba <pad.0+0x1b6>
 114:	6964                	c.flw	fs1,84(a0)
 116:	74736567          	0x74736567
 11a:	0000                	c.unimp
 11c:	3966                	c.fldsp	fs2,120(sp)
 11e:	6236                	c.flwsp	ft4,76(sp)
 120:	3936                	c.fldsp	fs2,360(sp)
 122:	63376437          	lui	s0,0x63376
 126:	3762                	c.fldsp	fa4,56(sp)
 128:	3339                	c.jal	fffffe36 <__modsi3+0xbfffeaf2>
 12a:	6438                	c.flw	fa4,72(s0)
 12c:	3235                	c.jal	fffffa58 <__modsi3+0xbfffe714>
 12e:	6135                	c.addi16sp	sp,352
 130:	6632                	c.flwsp	fa2,12(sp)
 132:	61613133          	0x61613133
 136:	3166                	c.fldsp	ft2,120(sp)
 138:	3136                	c.fldsp	ft2,360(sp)
 13a:	3064                	c.fld	fs1,224(s0)
 13c:	0000                	c.unimp
 13e:	0000                	c.unimp
 140:	6261                	c.lui	tp,0x18
 142:	66656463          	bltu	a0,t1,7aa <__BSS_END__+0x516>
 146:	6a696867          	0x6a696867
 14a:	6e6d6c6b          	0x6e6d6c6b
 14e:	7271706f          	jal	zero,18074 <__global_pointer$+0x175e0>
 152:	76757473          	csrrci	s0,0x767,10
 156:	7a797877          	0x7a797877
 15a:	0000                	c.unimp
 15c:	63663363          	0x63663363
 160:	3364                	c.fld	fs1,224(a4)
 162:	3764                	c.fld	fs1,232(a4)
 164:	3136                	c.fldsp	ft2,360(sp)
 166:	3239                	c.jal	fffffa74 <__modsi3+0xbfffe730>
 168:	3465                	c.jal	fffffc10 <__modsi3+0xbfffe8cc>
 16a:	3030                	c.fld	fa2,96(s0)
 16c:	62666437          	lui	s0,0x62666
 170:	3934                	c.fld	fa3,112(a0)
 172:	6336                	c.flwsp	ft6,76(sp)
 174:	37366163          	bltu	a2,s3,4d6 <__BSS_END__+0x242>
 178:	3165                	c.jal	fffffe20 <__modsi3+0xbfffeadc>
 17a:	00006233          	or	tp,zero,zero
 17e:	0000                	c.unimp
 180:	4241                	c.li	tp,16
 182:	46454443          	fmadd.q	fs0,fa0,ft4,fs0,rmm
 186:	4a494847          	fmsub.d	fa6,fs2,ft4,fs1,rmm
 18a:	4e4d4c4b          	fnmsub.q	fs8,fs10,ft4,fs1,rmm
 18e:	5251504f          	fnmadd.d	ft0,ft2,ft5,fa0,unknown
 192:	56555453          	0x56555453
 196:	5a595857          	0x5a595857
 19a:	6261                	c.lui	tp,0x18
 19c:	66656463          	bltu	a0,t1,804 <__BSS_END__+0x570>
 1a0:	6a696867          	0x6a696867
 1a4:	6e6d6c6b          	0x6e6d6c6b
 1a8:	7271706f          	jal	zero,180ce <__global_pointer$+0x1763a>
 1ac:	76757473          	csrrci	s0,0x767,10
 1b0:	7a797877          	0x7a797877
 1b4:	3130                	c.fld	fa2,96(a0)
 1b6:	3332                	c.fldsp	ft6,296(sp)
 1b8:	3534                	c.fld	fa3,104(a0)
 1ba:	3736                	c.fldsp	fa4,360(sp)
 1bc:	3938                	c.fld	fa4,112(a0)
 1be:	0000                	c.unimp
 1c0:	3164                	c.fld	fs1,224(a0)
 1c2:	62613437          	lui	s0,0x62613
 1c6:	3839                	c.jal	fffff9e4 <__modsi3+0xbfffe6a0>
 1c8:	3264                	c.fld	fs1,224(a2)
 1ca:	39643737          	lui	a4,0x39643
 1ce:	3566                	c.fldsp	fa0,120(sp)
 1d0:	3561                	c.jal	58 <pad.0+0x54>
 1d2:	3136                	c.fldsp	ft2,360(sp)
 1d4:	6331                	c.lui	t1,0xc
 1d6:	6332                	c.flwsp	ft6,12(sp)
 1d8:	6639                	c.lui	a2,0xe
 1da:	3134                	c.fld	fa3,96(a0)
 1dc:	6439                	c.lui	s0,0xe
 1de:	6639                	c.lui	a2,0xe
 1e0:	0000                	c.unimp
 1e2:	0000                	c.unimp
 1e4:	3231                	c.jal	fffffaf0 <__modsi3+0xbfffe7ac>
 1e6:	36353433          	0x36353433
 1ea:	30393837          	lui	a6,0x30393
 1ee:	3231                	c.jal	fffffafa <__modsi3+0xbfffe7b6>
 1f0:	36353433          	0x36353433
 1f4:	30393837          	lui	a6,0x30393
 1f8:	3231                	c.jal	fffffb04 <__modsi3+0xbfffe7c0>
 1fa:	36353433          	0x36353433
 1fe:	30393837          	lui	a6,0x30393
 202:	3231                	c.jal	fffffb0e <__modsi3+0xbfffe7ca>
 204:	36353433          	0x36353433
 208:	30393837          	lui	a6,0x30393
 20c:	3231                	c.jal	fffffb18 <__modsi3+0xbfffe7d4>
 20e:	36353433          	0x36353433
 212:	30393837          	lui	a6,0x30393
 216:	3231                	c.jal	fffffb22 <__modsi3+0xbfffe7de>
 218:	36353433          	0x36353433
 21c:	30393837          	lui	a6,0x30393
 220:	3231                	c.jal	fffffb2c <__modsi3+0xbfffe7e8>
 222:	36353433          	0x36353433
 226:	30393837          	lui	a6,0x30393
 22a:	3231                	c.jal	fffffb36 <__modsi3+0xbfffe7f2>
 22c:	36353433          	0x36353433
 230:	30393837          	lui	a6,0x30393
 234:	0000                	c.unimp
 236:	0000                	c.unimp
 238:	3735                	c.jal	164 <pad.0+0x160>
 23a:	6465                	c.lui	s0,0x19
 23c:	3466                	c.fldsp	fs0,120(sp)
 23e:	3261                	c.jal	fffffbc6 <__modsi3+0xbfffe882>
 240:	6232                	c.flwsp	ft4,12(sp)
 242:	3365                	c.jal	ffffffea <__modsi3+0xbfffeca6>
 244:	35353963          	0x35353963
 248:	6361                	c.lui	t1,0x18
 24a:	3934                	c.fld	fa3,112(a0)
 24c:	6164                	c.flw	fs1,68(a0)
 24e:	6532                	c.flwsp	fa0,12(sp)
 250:	3132                	c.fldsp	ft2,296(sp)
 252:	3730                	c.fld	fa2,104(a4)
 254:	3662                	c.fldsp	fa2,56(sp)
 256:	00006137          	lui	sp,0x6
	...

0000025c <test.0>:
 25c:	0234                	c.addi4spn	a3,sp,264
 25e:	0000                	c.unimp
 260:	0044                	c.addi4spn	s1,sp,4
 262:	0000                	c.unimp
 264:	00bc                	c.addi4spn	a5,sp,72
 266:	0000                	c.unimp
 268:	00c0                	c.addi4spn	s0,sp,68
 26a:	0000                	c.unimp
 26c:	00e4                	c.addi4spn	s1,sp,76
 26e:	0000                	c.unimp
 270:	00e8                	c.addi4spn	a0,sp,76
 272:	0000                	c.unimp
 274:	010c                	c.addi4spn	a1,sp,128
 276:	0000                	c.unimp
 278:	011c                	c.addi4spn	a5,sp,128
 27a:	0000                	c.unimp
 27c:	0140                	c.addi4spn	s0,sp,132
 27e:	0000                	c.unimp
 280:	015c                	c.addi4spn	a5,sp,132
 282:	0000                	c.unimp
 284:	0180                	c.addi4spn	s0,sp,192
 286:	0000                	c.unimp
 288:	01c0                	c.addi4spn	s0,sp,196
 28a:	0000                	c.unimp
 28c:	01e4                	c.addi4spn	s1,sp,204
 28e:	0000                	c.unimp
 290:	0238                	c.addi4spn	a4,sp,264
	...

Disassembly of section .comment:

00000000 <.comment>:
   0:	3a434347          	fmsub.d	ft6,ft6,ft4,ft7,rmm
   4:	2820                	c.fld	fs0,80(s0)
   6:	29554e47          	fmsub.s	ft8,fa0,fs5,ft5,rmm
   a:	3120                	c.fld	fs0,96(a0)
   c:	2e30                	c.fld	fa2,88(a2)
   e:	2e31                	c.jal	32a <__BSS_END__+0x96>
  10:	0030                	c.addi4spn	a2,sp,8

Disassembly of section .riscv.attributes:

00000000 <.riscv.attributes>:
   0:	1b41                	c.addi	s6,-16
   2:	0000                	c.unimp
   4:	7200                	c.flw	fs0,32(a2)
   6:	7369                	c.lui	t1,0xffffa
   8:	01007663          	bgeu	zero,a6,14 <pad.0+0x10>
   c:	0011                	c.addi	zero,4
   e:	0000                	c.unimp
  10:	1004                	c.addi4spn	s1,sp,32
  12:	7205                	c.lui	tp,0xfffe1
  14:	3376                	c.fldsp	ft6,376(sp)
  16:	6932                	c.flwsp	fs2,12(sp)
  18:	7032                	c.flwsp	ft0,44(sp)
  1a:	0030                	c.addi4spn	a2,sp,8

Disassembly of section .debug_aranges:

00000000 <.debug_aranges>:
   0:	001c                	0x1c
   2:	0000                	c.unimp
   4:	0002                	c.slli64	zero
   6:	0000                	c.unimp
   8:	0000                	c.unimp
   a:	0004                	0x4
   c:	0000                	c.unimp
   e:	0000                	c.unimp
  10:	12c0                	c.addi4spn	s0,sp,356
  12:	4000                	c.lw	s0,0(s0)
  14:	00b4                	c.addi4spn	a3,sp,72
	...

Disassembly of section .debug_info:

00000000 <.debug_info>:
   0:	0022                	c.slli	zero,0x8
   2:	0000                	c.unimp
   4:	0002                	c.slli64	zero
   6:	0000                	c.unimp
   8:	0000                	c.unimp
   a:	0104                	c.addi4spn	s1,sp,128
   c:	0000                	c.unimp
   e:	0000                	c.unimp
  10:	12c0                	c.addi4spn	s0,sp,356
  12:	4000                	c.lw	s0,0(s0)
  14:	1374                	c.addi4spn	a3,sp,428
  16:	4000                	c.lw	s0,0(s0)
  18:	0000                	c.unimp
  1a:	0000                	c.unimp
  1c:	0030                	c.addi4spn	a2,sp,8
  1e:	0000                	c.unimp
  20:	008a                	c.slli	ra,0x2
  22:	0000                	c.unimp
  24:	8001                	c.srli64	s0

Disassembly of section .debug_abbrev:

00000000 <.debug_abbrev>:
   0:	1101                	c.addi	sp,-32
   2:	1000                	c.addi4spn	s0,sp,32
   4:	1106                	c.slli	sp,0x21
   6:	1201                	c.addi	tp,-32
   8:	0301                	c.addi	t1,0
   a:	1b0e                	c.slli	s6,0x23
   c:	250e                	c.fldsp	fa0,192(sp)
   e:	130e                	c.slli	t1,0x23
  10:	0005                	c.addi	zero,1
	...

Disassembly of section .debug_line:

00000000 <.debug_line>:
   0:	0165                	c.addi	sp,25
   2:	0000                	c.unimp
   4:	00460003          	lb	zero,4(a2) # e004 <__global_pointer$+0xd570>
   8:	0000                	c.unimp
   a:	0101                	c.addi	sp,0
   c:	000d0efb          	0xd0efb
  10:	0101                	c.addi	sp,0
  12:	0101                	c.addi	sp,0
  14:	0000                	c.unimp
  16:	0100                	c.addi4spn	s0,sp,128
  18:	0000                	c.unimp
  1a:	2e01                	c.jal	32a <__BSS_END__+0x96>
  1c:	2f2e                	c.fldsp	ft10,200(sp)
  1e:	2e2e                	c.fldsp	ft8,200(sp)
  20:	2f2e2e2f          	0x2f2e2e2f
  24:	2e2e                	c.fldsp	ft8,200(sp)
  26:	7369722f          	0x7369722f
  2a:	672d7663          	bgeu	s10,s2,696 <__BSS_END__+0x402>
  2e:	6c2f6363          	bltu	t5,sp,6f4 <__BSS_END__+0x460>
  32:	6269                	c.lui	tp,0x1a
  34:	2f636367          	0x2f636367
  38:	666e6f63          	bltu	t3,t1,6b6 <__BSS_END__+0x422>
  3c:	6769                	c.lui	a4,0x1a
  3e:	7369722f          	0x7369722f
  42:	00007663          	bgeu	zero,zero,4e <pad.0+0x4a>
  46:	6964                	c.flw	fs1,84(a0)
  48:	2e76                	c.fldsp	ft8,344(sp)
  4a:	00010053          	fadd.s	ft0,ft2,ft0,rne
  4e:	0000                	c.unimp
  50:	0500                	c.addi4spn	s0,sp,640
  52:	c002                	c.swsp	zero,0(sp)
  54:	0012                	c.slli	zero,0x4
  56:	0340                	c.addi4spn	s0,sp,388
  58:	00c4                	c.addi4spn	s1,sp,68
  5a:	0301                	c.addi	t1,0
  5c:	0901                	c.addi	s2,0
  5e:	0004                	0x4
  60:	0301                	c.addi	t1,0
  62:	0904                	c.addi4spn	s1,sp,144
  64:	0004                	0x4
  66:	0301                	c.addi	t1,0
  68:	0901                	c.addi	s2,0
  6a:	0004                	0x4
  6c:	0301                	c.addi	t1,0
  6e:	0901                	c.addi	s2,0
  70:	0004                	0x4
  72:	0301                	c.addi	t1,0
  74:	0901                	c.addi	s2,0
  76:	0004                	0x4
  78:	0301                	c.addi	t1,0
  7a:	0901                	c.addi	s2,0
  7c:	0004                	0x4
  7e:	0301                	c.addi	t1,0
  80:	0901                	c.addi	s2,0
  82:	0004                	0x4
  84:	0301                	c.addi	t1,0
  86:	0902                	c.slli64	s2
  88:	0004                	0x4
  8a:	0301                	c.addi	t1,0
  8c:	0901                	c.addi	s2,0
  8e:	0004                	0x4
  90:	0301                	c.addi	t1,0
  92:	0901                	c.addi	s2,0
  94:	0004                	0x4
  96:	0301                	c.addi	t1,0
  98:	0901                	c.addi	s2,0
  9a:	0004                	0x4
  9c:	0301                	c.addi	t1,0
  9e:	0902                	c.slli64	s2
  a0:	0004                	0x4
  a2:	0301                	c.addi	t1,0
  a4:	0902                	c.slli64	s2
  a6:	0004                	0x4
  a8:	0301                	c.addi	t1,0
  aa:	0901                	c.addi	s2,0
  ac:	0004                	0x4
  ae:	0301                	c.addi	t1,0
  b0:	0901                	c.addi	s2,0
  b2:	0004                	0x4
  b4:	0301                	c.addi	t1,0
  b6:	0902                	c.slli64	s2
  b8:	0004                	0x4
  ba:	0301                	c.addi	t1,0
  bc:	0901                	c.addi	s2,0
  be:	0004                	0x4
  c0:	0301                	c.addi	t1,0
  c2:	0901                	c.addi	s2,0
  c4:	0004                	0x4
  c6:	0301                	c.addi	t1,0
  c8:	0902                	c.slli64	s2
  ca:	0004                	0x4
  cc:	0301                	c.addi	t1,0
  ce:	0905                	c.addi	s2,1
  d0:	0004                	0x4
  d2:	0301                	c.addi	t1,0
  d4:	0901                	c.addi	s2,0
  d6:	0004                	0x4
  d8:	0301                	c.addi	t1,0
  da:	0901                	c.addi	s2,0
  dc:	0004                	0x4
  de:	0301                	c.addi	t1,0
  e0:	0901                	c.addi	s2,0
  e2:	0004                	0x4
  e4:	0301                	c.addi	t1,0
  e6:	0905                	c.addi	s2,1
  e8:	0004                	0x4
  ea:	0301                	c.addi	t1,0
  ec:	0902                	c.slli64	s2
  ee:	0004                	0x4
  f0:	0301                	c.addi	t1,0
  f2:	0902                	c.slli64	s2
  f4:	0004                	0x4
  f6:	0301                	c.addi	t1,0
  f8:	0901                	c.addi	s2,0
  fa:	0004                	0x4
  fc:	0301                	c.addi	t1,0
  fe:	0902                	c.slli64	s2
 100:	0004                	0x4
 102:	0301                	c.addi	t1,0
 104:	0902                	c.slli64	s2
 106:	0004                	0x4
 108:	0301                	c.addi	t1,0
 10a:	0901                	c.addi	s2,0
 10c:	0004                	0x4
 10e:	0301                	c.addi	t1,0
 110:	0901                	c.addi	s2,0
 112:	0004                	0x4
 114:	0301                	c.addi	t1,0
 116:	0901                	c.addi	s2,0
 118:	0004                	0x4
 11a:	0301                	c.addi	t1,0
 11c:	0904                	c.addi4spn	s1,sp,144
 11e:	0004                	0x4
 120:	0301                	c.addi	t1,0
 122:	0901                	c.addi	s2,0
 124:	0004                	0x4
 126:	0301                	c.addi	t1,0
 128:	0901                	c.addi	s2,0
 12a:	0004                	0x4
 12c:	0301                	c.addi	t1,0
 12e:	0902                	c.slli64	s2
 130:	0004                	0x4
 132:	0301                	c.addi	t1,0
 134:	0901                	c.addi	s2,0
 136:	0004                	0x4
 138:	0301                	c.addi	t1,0
 13a:	0901                	c.addi	s2,0
 13c:	0004                	0x4
 13e:	0301                	c.addi	t1,0
 140:	0902                	c.slli64	s2
 142:	0004                	0x4
 144:	0301                	c.addi	t1,0
 146:	0901                	c.addi	s2,0
 148:	0004                	0x4
 14a:	0301                	c.addi	t1,0
 14c:	0902                	c.slli64	s2
 14e:	0004                	0x4
 150:	0301                	c.addi	t1,0
 152:	0901                	c.addi	s2,0
 154:	0004                	0x4
 156:	0301                	c.addi	t1,0
 158:	0901                	c.addi	s2,0
 15a:	0004                	0x4
 15c:	0301                	c.addi	t1,0
 15e:	0901                	c.addi	s2,0
 160:	0004                	0x4
 162:	0901                	c.addi	s2,0
 164:	0004                	0x4
 166:	0100                	c.addi4spn	s0,sp,128
 168:	01              	Address 0x0000000000000168 is out of bounds.


Disassembly of section .debug_str:

00000000 <.debug_str>:
   0:	2e2e                	c.fldsp	ft8,200(sp)
   2:	2f2e2e2f          	0x2f2e2e2f
   6:	2e2e                	c.fldsp	ft8,200(sp)
   8:	2f2e2e2f          	0x2f2e2e2f
   c:	6972                	c.flwsp	fs2,28(sp)
   e:	2d766373          	csrrsi	t1,0x2d7,12
  12:	2f636367          	0x2f636367
  16:	696c                	c.flw	fa1,84(a0)
  18:	6762                	c.flwsp	fa4,24(sp)
  1a:	632f6363          	bltu	t5,s2,640 <__BSS_END__+0x3ac>
  1e:	69666e6f          	jal	t3,666b4 <__global_pointer$+0x65c20>
  22:	69722f67          	0x69722f67
  26:	2f766373          	csrrsi	t1,0x2f7,12
  2a:	6964                	c.flw	fs1,84(a0)
  2c:	2e76                	c.fldsp	ft8,344(sp)
  2e:	742f0053          	0x742f0053
  32:	706d                	c.lui	zero,0xffffb
  34:	7435722f          	0x7435722f
  38:	736c6f6f          	jal	t5,c676e <__global_pointer$+0xc5cda>
  3c:	7369722f          	0x7369722f
  40:	672d7663          	bgeu	s10,s2,6ac <__BSS_END__+0x418>
  44:	756e                	c.flwsp	fa0,248(sp)
  46:	742d                	c.lui	s0,0xfffeb
  48:	636c6f6f          	jal	t5,c667e <__global_pointer$+0xc5bea>
  4c:	6168                	c.flw	fa0,68(a0)
  4e:	6e69                	c.lui	t3,0x1a
  50:	6975622f          	0x6975622f
  54:	646c                	c.flw	fa1,76(s0)
  56:	6975622f          	0x6975622f
  5a:	646c                	c.flw	fa1,76(s0)
  5c:	672d                	c.lui	a4,0xb
  5e:	6e2d6363          	bltu	s10,sp,744 <__BSS_END__+0x4b0>
  62:	7765                	c.lui	a4,0xffff9
  64:	696c                	c.flw	fa1,84(a0)
  66:	2d62                	c.fldsp	fs10,24(sp)
  68:	67617473          	csrrci	s0,0x676,2
  6c:	3265                	c.jal	fffffa14 <__modsi3+0xbfffe6d0>
  6e:	7369722f          	0x7369722f
  72:	32337663          	bgeu	t1,gp,39e <__BSS_END__+0x10a>
  76:	752d                	c.lui	a0,0xfffeb
  78:	6b6e                	c.flwsp	fs6,216(sp)
  7a:	6f6e                	c.flwsp	ft10,216(sp)
  7c:	652d6e77          	0x652d6e77
  80:	666c                	c.flw	fa1,76(a2)
  82:	62696c2f          	0x62696c2f
  86:	00636367          	0x636367
  8a:	20554e47          	fmsub.s	ft8,fa0,ft5,ft4,rmm
  8e:	5341                	c.li	t1,-16
  90:	3220                	c.fld	fs0,96(a2)
  92:	332e                	c.fldsp	ft6,232(sp)
  94:	0034                	c.addi4spn	a3,sp,8
