93021000
13000000
13000000
13000000
13000000
93822200
13000000
13000000
13000000
93921200
13000000
13000000
13000000
23285000
13000000
13000000
13000000
83220001
13000000
13000000
13000000
03130001
13000000
13000000
13000000
6ff01ffb
13000000
13000000
13000000
